{
  "table": "location_history",
  "source_tables": {
    "IR_BEN_R": {
      "CDM_columns": {
        "location_id": "CONCAT(BEN_RES_DPT, '_', BEN_RES_COM)",
        "relationship_type_concept_id": "0",
        "domain_id": "'PERSON'",
        "entity_id": "NUM_ENQ",
        "start_date": "BEN_DTE_MAJ",
        "end_date": "None"
      },
      "comments": {
      }
    },
    "DCIR": {
      "CDM_columns": {
        "location_id": "CONCAT(BEN_RES_DPT, '_', BEN_RES_COM)",
        "relationship_type_concept_id": "0",
        "domain_id": "'PERSON'",
        "entity_id": "NUM_ENQ",
        "start_date": "EXE_SOI_DTD",
        "end_date": "None"
      },
      "comments": {
        "start_date": "Preprocessing of dcir is performed before extracting: only changes in location are kept : see [method filterLocationChanges here for implementation details](https://gitlab.com/DREES_code/OSAM/omop-snds-structural-etl/blob/master/src/main/scala/drees/omopEtl/etl/sndsExtractor/dcir/DcirSource.scala)"
      }
    },
    "DAPRAR": {
      "CDM_columns": {
        "location_id": "PFS_COD_POS",
        "relationship_type_concept_id": "0",
        "domain_id": "'PROVIDER'",
        "entity_id": "PFS_PFS_NUM",
        "start_date": "PFS_INS_DSD",
        "end_date": "None"
      },
      "comments": {
      }
    }
  }
}

