{
  "table": "condition_occurrence",
  "source_tables": {
    "MCO_B__DGN_PAL": {
      "CDM_columns": {
        "condition_occurrence_id": "0",
        "person_id": "NUM_ENQ",
        "condition_concept_id": "0",
        "condition_start_date": "EXE_SOI_DTD",
        "condition_start_datetime": "EXE_SOI_DTD.cast('TIMESTAMP')",
        "condition_end_date": "EXE_SOI_DTF",
        "condition_end_datetime": "EXE_SOI_DTF.cast('TIMESTAMP')",
        "condition_type_concept_id": "44786627",
        "condition_status_concept_id": "4230359",
        "stop_reason": "0",
        "provider_id": "0",
        "visit_occurrence_id": "CONCAT(MCO_B__ETA_NUM, '_',  MCO_B__RSA_NUM, '_', MCO_B__SOR_ANN)",
        "visit_detail_id": "0",
        "condition_source_value": "MCO_B__DGN_PAL",
        "condition_source_concept_id": "0",
        "condition_status_source_value": "'MCO_B__DGN_PAL'"
      },
      "comments": {
        "condition_type_concept_id": "44786627, primary condition",
        "condition_status_concept_id": "4230359) final diagnosis because all diagnoses of the SNDS are definitive diagnoses after the care is done",
        "visit_detail_id": "could be used to store the 'UM' value ? -> Excellent: TODO"
      }
    },
    "MCO_B__DGN_REL": {
      "CDM_columns": {
        "condition_occurrence_id": "0",
        "person_id": "NUM_ENQ",
        "condition_concept_id": "0",
        "condition_start_date": "EXE_SOI_DTD",
        "condition_start_datetime": "EXE_SOI_DTD.cast('TIMESTAMP')",
        "condition_end_date": "EXE_SOI_DTF",
        "condition_end_datetime": "EXE_SOI_DTF.cast('TIMESTAMP')",
        "condition_type_concept_id": "44786628",
        "condition_status_concept_id": "4230359",
        "stop_reason": "0",
        "provider_id": "0",
        "visit_occurrence_id": "CONCAT(MCO_B__ETA_NUM, '_',  MCO_B__RSA_NUM, '_', MCO_B__SOR_ANN)",
        "visit_detail_id": "0",
        "condition_source_value": "MCO_B__DGN_REL",
        "condition_source_concept_id": "0",
        "condition_status_source_value": "'MCO_B__DGN_REL'"
      },
      "comments": {
        "condition_type_concept_id": " 44786628 // [TEMP] First Position Condition",
        "condition_status_concept_id": "4230359) final diagnosis because all diagnoses of the SNDS are definitive diagnoses after the care is done",
        "visit_detail_id": "could be used to store the 'UM' value ? -> Excellent: TODO"
      }
    },
    "MCO_D__ASS_DGN": {
      "CDM_columns": {
        "condition_occurrence_id": "0",
        "person_id": "NUM_ENQ",
        "condition_concept_id": "0",
        "condition_start_date": "EXE_SOI_DTD",
        "condition_start_datetime": "EXE_SOI_DTD.cast('TIMESTAMP')",
        "condition_end_date": "EXE_SOI_DTF",
        "condition_end_datetime": "EXE_SOI_DTF.cast('TIMESTAMP')",
        "condition_type_concept_id": "44786629",
        "condition_status_concept_id": "4230359",
        "stop_reason": "0",
        "provider_id": "0",
        "visit_occurrence_id": "CONCAT(MCO_B__ETA_NUM, '_',  MCO_B__RSA_NUM, '_', MCO_B__SOR_ANN)",
        "visit_detail_id": "0",
        "condition_source_value": "MCO_D__ASS_DGN",
        "condition_source_concept_id": "0",
        "condition_status_source_value": "'MCO_D__ASS_DGN'"
      },
      "comments": {
        "condition_type_concept_id": " 44786629 // secondary Condition",
        "condition_status_concept_id": "4230359) final diagnosis because all diagnoses of the SNDS are definitive diagnoses after the care is done",
        "visit_detail_id": "could be used to store the 'UM' value ? -> Excellent: TODO"
      }
    },
    "MCO_UM__DGN_PAL": {
      "CDM_columns": {
        "condition_occurrence_id": "0",
        "person_id": "NUM_ENQ",
        "condition_concept_id": "0",
        "condition_start_date": "EXE_SOI_DTD",
        "condition_start_datetime": "EXE_SOI_DTD.cast('TIMESTAMP')",
        "condition_end_date": "EXE_SOI_DTF",
        "condition_end_datetime": "EXE_SOI_DTF.cast('TIMESTAMP')",
        "condition_type_concept_id": "38000184",
        "condition_status_concept_id": "4230359",
        "stop_reason": "0",
        "provider_id": "0",
        "visit_occurrence_id": "CONCAT(MCO_B__ETA_NUM, '_',  MCO_B__RSA_NUM, '_', MCO_B__SOR_ANN)",
        "visit_detail_id": "0",
        "condition_source_value": "MCO_UM__DGN_PAL",
        "condition_source_concept_id": "0",
        "condition_status_source_value": "'MCO_UM__DGN_PAL'"
      },
      "comments": {
        "condition_type_concept_id": "38000184 // Inpatient detail - 1st position",
        "condition_status_concept_id": "4230359) final diagnosis because all diagnoses of the SNDS are definitive diagnoses after the care is done",
        "visit_detail_id": "could be used to store the 'UM' value ? -> Excellent: TODO"
      }
    },
    "MCO_UM__DGN_REL": {
      "CDM_columns": {
        "condition_occurrence_id": "0",
        "person_id": "NUM_ENQ",
        "condition_concept_id": "0",
        "condition_start_date": "EXE_SOI_DTD",
        "condition_start_datetime": "EXE_SOI_DTD.cast('TIMESTAMP')",
        "condition_end_date": "EXE_SOI_DTF",
        "condition_end_datetime": "EXE_SOI_DTF.cast('TIMESTAMP')",
        "condition_type_concept_id": "38000185",
        "condition_status_concept_id": "4230359",
        "stop_reason": "0",
        "provider_id": "0",
        "visit_occurrence_id": "CONCAT(MCO_B__ETA_NUM, '_',  MCO_B__RSA_NUM, '_', MCO_B__SOR_ANN)",
        "visit_detail_id": "0",
        "condition_source_value": "MCO_UM__DGN_REL",
        "condition_source_concept_id": "0",
        "condition_status_source_value": "'MCO_UM__DGN_REL'"
      },
      "comments": {
        "condition_type_concept_id": "38000185 // Inpatient detail - 2nd position",
        "condition_status_concept_id": "4230359) final diagnosis because all diagnoses of the SNDS are definitive diagnoses after the care is done",
        "visit_detail_id": "could be used to store the 'UM' value ? -> Excellent: TODO"
      }
    },
    "SSR_B__MOR_PRP": {
      "CDM_columns": {
        "condition_occurrence_id": "0",
        "person_id": "NUM_ENQ",
        "condition_concept_id": "0",
        "condition_start_date": "EXE_SOI_DTD",
        "condition_start_datetime": "EXE_SOI_DTD.cast('TIMESTAMP')",
        "condition_end_date": "EXE_SOI_DTF",
        "condition_end_datetime": "EXE_SOI_DTF.cast('TIMESTAMP')",
        "condition_type_concept_id": "44786627",
        "condition_status_concept_id": "4230359",
        "stop_reason": "0",
        "provider_id": "0",
        "visit_occurrence_id": "CONCAT(SSR_B__ETA_NUM, '_',  SSR_B__RHA_NUM, '_', year)",
        "visit_detail_id": "0",
        "condition_source_value": "SSR_B__MOR_PRP",
        "condition_source_concept_id": "0",
        "condition_status_source_value": "'SSR_B__MOR_PRP'"
      },
      "comments": {
        "condition_type_concept_id": "44786627 // Primary Condition",
        "condition_status_concept_id": "4230359) final diagnosis because all diagnoses of the SNDS are definitive diagnoses after the care is done",
        "visit_detail_id": "could be used to store the 'UM' value ? -> Excellent: TODO",
        "visit_occurrence_id": "year is derived from original csv file"
      }
    },
    "SSR_B__ETL_AFF": {
      "CDM_columns": {
        "condition_occurrence_id": "0",
        "person_id": "NUM_ENQ",
        "condition_concept_id": "0",
        "condition_start_date": "EXE_SOI_DTD",
        "condition_start_datetime": "EXE_SOI_DTD.cast('TIMESTAMP')",
        "condition_end_date": "EXE_SOI_DTF",
        "condition_end_datetime": "EXE_SOI_DTF.cast('TIMESTAMP')",
        "condition_type_concept_id": "44786628",
        "condition_status_concept_id": "4230359",
        "stop_reason": "0",
        "provider_id": "0",
        "visit_occurrence_id": "CONCAT(SSR_B__ETA_NUM, '_',  SSR_B__RHA_NUM, '_', year)",
        "visit_detail_id": "0",
        "condition_source_value": "SSR_B__ETL_AFF",
        "condition_source_concept_id": "0",
        "condition_status_source_value": "'SSR_B__ETL_AFF'"
      },
      "comments": {
        "condition_type_concept_id": "44786628 // [TEMP] First Position Condition",
        "condition_status_concept_id": "4230359) final diagnosis because all diagnoses of the SNDS are definitive diagnoses after the care is done",
        "visit_detail_id": "could be used to store the 'UM' value ? -> Excellent: TODO",
        "visit_occurrence_id": "year is derived from original csv file"
      }
    },
    "SSR_D__ASS_DGN": {
      "CDM_columns": {
        "condition_occurrence_id": "0",
        "person_id": "NUM_ENQ",
        "condition_concept_id": "0",
        "condition_start_date": "EXE_SOI_DTD",
        "condition_start_datetime": "EXE_SOI_DTD.cast('TIMESTAMP')",
        "condition_end_date": "EXE_SOI_DTF",
        "condition_end_datetime": "EXE_SOI_DTF.cast('TIMESTAMP')",
        "condition_type_concept_id": "44786629",
        "condition_status_concept_id": "4230359",
        "stop_reason": "0",
        "provider_id": "0",
        "visit_occurrence_id": "CONCAT(SSR_B__ETA_NUM, '_',  SSR_B__RHA_NUM, '_', year)",
        "visit_detail_id": "0",
        "condition_source_value": "SSR_D__ASS_DGN",
        "condition_source_concept_id": "0",
        "condition_status_source_value": "'SSR_D__ASS_DGN'"
      },
      "comments": {
        "condition_type_concept_id": "44786629 // Secondary Condition",
        "condition_status_concept_id": "4230359) final diagnosis because all diagnoses of the SNDS are definitive diagnoses after the care is done",
        "visit_detail_id": "could be used to store the 'UM' value ? -> Excellent: TODO",
        "visit_occurrence_id": "year is derived from original csv file"
      }
    },
    "HAD_B__DGN_PAL": {
      "CDM_columns": {
        "condition_occurrence_id": "0",
        "person_id": "NUM_ENQ",
        "condition_concept_id": "0",
        "condition_start_date": "EXE_SOI_DTD",
        "condition_start_datetime": "EXE_SOI_DTD.cast('TIMESTAMP')",
        "condition_end_date": "EXE_SOI_DTF",
        "condition_end_datetime": "EXE_SOI_DTF.cast('TIMESTAMP')",
        "condition_type_concept_id": "44786627",
        "condition_status_concept_id": "4230359",
        "stop_reason": "0",
        "provider_id": "0",
        "visit_occurrence_id": "CONCAT(HAD_B__ETA_NUM_EPMSI, '_',  HAD__RHAD_NUM, '_', HAD_B__SOR_ANN)",
        "visit_detail_id": "0",
        "condition_source_value": "HAD_B__DGN_PAL",
        "condition_source_concept_id": "0",
        "condition_status_source_value": "'HAD_B__DGN_PAL'"
      },
      "comments": {
        "condition_type_concept_id": "44786627 // Primary Condition",
        "condition_status_concept_id": "4230359) final diagnosis because all diagnoses of the SNDS are definitive diagnoses after the care is done",
        "visit_detail_id": "could be used to store the 'UM' value ? -> Excellent: TODO",
        "visit_occurrence_id": "year is derived from original csv file"
      }
    },
    "HAD_D__DGN_ASS": {
      "CDM_columns": {
        "condition_occurrence_id": "0",
        "person_id": "NUM_ENQ",
        "condition_concept_id": "0",
        "condition_start_date": "EXE_SOI_DTD",
        "condition_start_datetime": "EXE_SOI_DTD.cast('TIMESTAMP')",
        "condition_end_date": "EXE_SOI_DTF",
        "condition_end_datetime": "EXE_SOI_DTF.cast('TIMESTAMP')",
        "condition_type_concept_id": "44786629",
        "condition_status_concept_id": "4230359",
        "stop_reason": "0",
        "provider_id": "0",
        "visit_occurrence_id": "CONCAT(HAD_B__ETA_NUM_EPMSI, '_',  HAD__RHAD_NUM, '_', HAD_B__SOR_ANN)",
        "visit_detail_id": "0",
        "condition_source_value": "HAD_D__DGN_ASS",
        "condition_source_concept_id": "0",
        "condition_status_source_value": "'HAD_D__DGN_ASS'"
      },
      "comments": {
        "condition_type_concept_id": "44786629 // Secondary Condition",
        "condition_status_concept_id": "4230359) final diagnosis because all diagnoses of the SNDS are definitive diagnoses after the care is done",
        "visit_detail_id": "could be used to store the 'UM' value ? -> Excellent: TODO",
        "visit_occurrence_id": "year is derived from original csv file"
      }
    },
    "RIP_RSA__DGN_PAL": {
      "CDM_columns": {
        "condition_occurrence_id": "0",
        "person_id": "NUM_ENQ",
        "condition_concept_id": "0",
        "condition_start_date": "EXE_SOI_DTD",
        "condition_start_datetime": "EXE_SOI_DTD.cast('TIMESTAMP')",
        "condition_end_date": "EXE_SOI_DTF",
        "condition_end_datetime": "EXE_SOI_DTF.cast('TIMESTAMP')",
        "condition_type_concept_id": "44786627",
        "condition_status_concept_id": "4230359",
        "stop_reason": "0",
        "provider_id": "0",
        "visit_occurrence_id": "CONCAT(ETA_NUM_EPMSI, '_',  RIP_NUM, '_', year)",
        "visit_detail_id": "0",
        "condition_source_value": "RIP_RSA__DGN_PAL",
        "condition_source_concept_id": "0",
        "condition_status_source_value": "'RIP_RSA__DGN_PAL'"
      },
      "comments": {
        "condition_type_concept_id": "44786627 // Primary Condition",
        "condition_status_concept_id": "4230359) final diagnosis because all diagnoses of the SNDS are definitive diagnoses after the care is done",
        "visit_detail_id": "could be used to store the 'UM' value ? -> Excellent: TODO",
        "visit_occurrence_id": "year is derived from original csv file"
      }
    },
    "RIP_RSAD__DGN_ASS": {
      "CDM_columns": {
        "condition_occurrence_id": "0",
        "person_id": "NUM_ENQ",
        "condition_concept_id": "0",
        "condition_start_date": "EXE_SOI_DTD",
        "condition_start_datetime": "EXE_SOI_DTD.cast('TIMESTAMP')",
        "condition_end_date": "EXE_SOI_DTF",
        "condition_end_datetime": "EXE_SOI_DTF.cast('TIMESTAMP')",
        "condition_type_concept_id": "44786629",
        "condition_status_concept_id": "4230359",
        "stop_reason": "0",
        "provider_id": "0",
        "visit_occurrence_id": "CONCAT(ETA_NUM_EPMSI, '_',  RIP_NUM, '_', year)",
        "visit_detail_id": "0",
        "condition_source_value": "RIP_RSAD__DGN_ASS",
        "condition_source_concept_id": "0",
        "condition_status_source_value": "'RIP_RSAD__DGN_ASS'"
      },
      "comments": {
        "condition_type_concept_id": "44786629 // Secondary Condition",
        "condition_status_concept_id": "4230359) final diagnosis because all diagnoses of the SNDS are definitive diagnoses after the care is done",
        "visit_detail_id": "could be used to store the 'UM' value ? -> Excellent: TODO",
        "visit_occurrence_id": "year is derived from original csv file"
      }
    },
    "IR_IMB_R": {
      "CDM_columns": {
        "condition_occurrence_id": "0",
        "person_id": "NUM_ENQ",
        "condition_concept_id": "0",
        "condition_start_date": "IMB_ALD_DTD",
        "condition_start_datetime": "IMB_ALD_DTD.cast('TIMESTAMP')",
        "condition_end_date": "IMB_ALD_DTF",
        "condition_end_datetime": "IMB_ALD_DTF.cast('TIMESTAMP')",
        "condition_type_concept_id": "44786629",
        "condition_status_concept_id": "4230359",
        "stop_reason": "0",
        "provider_id": "0",
        "visit_occurrence_id": "0",
        "visit_detail_id": "0",
        "condition_source_value": "MED_MTF_COD",
        "condition_source_concept_id": "0",
        "condition_status_source_value": "ALD"
      },
      "temporary_columns": {
      },
      "comments": {
        "condition_occurrence_id": "incremental, filter null lines when doing this",
        "condition_type_concept_id": "44786629, [TMP] Primary Condition as adviced by A. Lammer et al. (Lille)"
      }
    }
  }
}
