{
  "table": "cost",
  "source_tables": {
    "DCIR_base": {
      "CDM_columns": {
        "cost_id": "CONCAT(FLX_DIS_DTD, '_', FLX_TRT_DTD, '_', FLX_EMT_TYP, '_', FLX_EMT_NUM, '_', FLX_EMT_ORD, '_', ORG_CLE_NUM, '_', DCT_ORD_NUM, '_', PRS_ORD_NUM, '_', REM_TYP_AFF)",
        "person_id": "NUM_ENQ",
        "cost_event_id": "0",
        "cost_event_field_concept_id": "0",
        "cost_concept_id": "32000",
        "cost_type_concept_id": "31968",
        "cost_source_concept_id": "0",
        "cost_source_value": "ER_PRS_F__BSE_REM_BSE",
        "currency_concept_id": "44818568",
        "cost": "ER_PRS_F__BSE_REM_BSE",
        "incurred_date": "EXE_SOI_DTD",
        "billed_date": "ER_PRS_F__PRE_PRE_DTD",
        "paid_date": "EXE_SOI_DTD",
        "revenue_code_concept_id": "38003025",
        "drg_concept_id": "0",
        "revenue_code_source_value": "0",
        "drg_source_value": "0",
        "payer_plan_period_id": "ER_PRS_F__ORG_AFF_BEN"
      },
      "temporary_columns": {
      },
      "comments": {
        "cost_type_concept_id" : "corresponds to the provenance of the cost data so : 31968 - Payer system (primary payer)",
        "cost_concept_id" : "Base de remboursement // 32000 (= allowed) (maximum amount a plan will pay for a covered health care service)",
        "cost_id" : "more infos on concepts mapping : https://docs.google.com/spreadsheets/d/1EMSNUkeW3ixLh8uHe_E8I3ambczmITsDBxVbZS1RBIM/edit#gid=0",
        "currency_concept_id": "44818568 // euros",
        "revenue_code_concept_id": "38003025 // Total Charge"
      }
    },
    "DCIR_comp": {
      "CDM_columns": {
        "cost_id": "CONCAT(FLX_DIS_DTD, '_', FLX_TRT_DTD, '_', FLX_EMT_TYP, '_', FLX_EMT_NUM, '_', FLX_EMT_ORD, '_', ORG_CLE_NUM, '_', DCT_ORD_NUM, '_', PRS_ORD_NUM, '_', REM_TYP_AFF)",
        "person_id": "NUM_ENQ",
        "cost_event_id": "0",
        "cost_event_field_concept_id": "0",
        "cost_concept_id": "31996",
        "cost_type_concept_id": "31968",
        "cost_source_concept_id": "0",
        "cost_source_value": "ER_PRS_F__CPL_REM_MNT",
        "currency_concept_id": "44818568",
        "cost": "ER_PRS_F__CPL_REM_MNT",
        "incurred_date": "EXE_SOI_DTD",
        "billed_date": "ER_PRS_F__PRE_PRE_DTD",
        "paid_date": "EXE_SOI_DTD",
        "revenue_code_concept_id": "38003025",
        "drg_concept_id": "0",
        "revenue_code_source_value": "0",
        "drg_source_value": "0",
        "payer_plan_period_id": "ER_PRS_F__ORG_AFF_BEN"
      },
      "temporary_columns": {
      },
      "comments": {
        "cost_type_concept_id" : "corresponds to the provenance of the cost data so : 31968 - Payer system (primary payer)",
        "cost_concept_id" : "Compléments et majoration - 31996 (= copayment (fixed amount you pay for a covered health care service after you've paid your deductible)",
        "cost_id" : "more infos on concepts mapping : https://docs.google.com/spreadsheets/d/1EMSNUkeW3ixLh8uHe_E8I3ambczmITsDBxVbZS1RBIM/edit#gid=0",
        "currency_concept_id": "44818568 // euros",
        "revenue_code_concept_id": "38003025 // Total Charge"
      }
    },
    "DCIR_rac": {
      "CDM_columns": {
        "cost_id": "CONCAT(FLX_DIS_DTD, '_', FLX_TRT_DTD, '_', FLX_EMT_TYP, '_', FLX_EMT_NUM, '_', FLX_EMT_ORD, '_', ORG_CLE_NUM, '_', DCT_ORD_NUM, '_', PRS_ORD_NUM, '_', REM_TYP_AFF)",
        "person_id": "NUM_ENQ",
        "cost_event_id": "0",
        "cost_event_field_concept_id": "0",
        "cost_concept_id": "32003",
        "cost_type_concept_id": "31968",
        "cost_source_concept_id": "0",
        "cost_source_value": "ER_PRS_F__PRS_PAI_MNT - ER_PRS_F__BSE_REM_MNT -ER_PRS_F__CPL_REM_MNT",
        "currency_concept_id": "44818568",
        "cost": "ER_PRS_F__PRS_PAI_MNT - ER_PRS_F__BSE_REM_MNT - ER_PRS_F__CPL_REM_MNT",
        "incurred_date": "EXE_SOI_DTD",
        "billed_date": "ER_PRS_F__PRE_PRE_DTD",
        "paid_date": "EXE_SOI_DTD",
        "revenue_code_concept_id": "38003025",
        "drg_concept_id": "0",
        "revenue_code_source_value": "0",
        "drg_source_value": "0",
        "payer_plan_period_id": "ER_PRS_F__ORG_AFF_BEN"
      },
      "temporary_columns": {
      },
      "comments": {
        "cost_type_concept_id" : "corresponds to the provenance of the cost data so : 31968 - Payer system (primary payer)",
        "cost_concept_id" : "Reste à charge - 32003 (= Out of pocket (your expenses for medical care that aren't reimbursed by insurance)",
        "cost_id" : "more infos on concepts mapping : https://docs.google.com/spreadsheets/d/1EMSNUkeW3ixLh8uHe_E8I3ambczmITsDBxVbZS1RBIM/edit#gid=0",
        "currency_concept_id": "44818568 // euros",
        "revenue_code_concept_id": "38003025 // Total Charge"
      }
    },
    "DCIR_refunded": {
      "CDM_columns": {
        "cost_id": "CONCAT(FLX_DIS_DTD, '_', FLX_TRT_DTD, '_', FLX_EMT_TYP, '_', FLX_EMT_NUM, '_', FLX_EMT_ORD, '_', ORG_CLE_NUM, '_', DCT_ORD_NUM, '_', PRS_ORD_NUM, '_', REM_TYP_AFF)",
        "person_id": "NUM_ENQ",
        "cost_event_id": "0",
        "cost_event_field_concept_id": "0",
        "cost_concept_id": "32002",
        "cost_type_concept_id": "31968",
        "cost_source_concept_id": "0",
        "cost_source_value": "ER_PRS_F__BSE_REM_MNT + ER_PRS_F__CPL_REM_MNT",
        "currency_concept_id": "44818568",
        "cost": "ER_PRS_F__BSE_REM_MNT + ER_PRS_F__CPL_REM_MNT",
        "incurred_date": "EXE_SOI_DTD",
        "billed_date": "ER_PRS_F__PRE_PRE_DTD",
        "paid_date": "EXE_SOI_DTD",
        "revenue_code_concept_id": "38003025",
        "drg_concept_id": "0",
        "revenue_code_source_value": "0",
        "drg_source_value": "0",
        "payer_plan_period_id": "ER_PRS_F__ORG_AFF_BEN"
      },
      "temporary_columns": {
      },
      "comments": {
        "cost_type_concept_id" : "corresponds to the provenance of the cost data so : 31968 - Payer system (primary payer)",
        "cost_concept_id" : "Montant remboursé - 32002 (= Paid (amount paid by a payer to the provider for a covered care service)",
        "cost_id" : "more infos on concepts mapping : https://docs.google.com/spreadsheets/d/1EMSNUkeW3ixLh8uHe_E8I3ambczmITsDBxVbZS1RBIM/edit#gid=0",
        "currency_concept_id": "44818568 // euros",
        "revenue_code_concept_id": "38003025 // Total Charge"
      }
    },
    "DCIR_total": {
      "CDM_columns": {
        "cost_id": "CONCAT(FLX_DIS_DTD, '_', FLX_TRT_DTD, '_', FLX_EMT_TYP, '_', FLX_EMT_NUM, '_', FLX_EMT_ORD, '_', ORG_CLE_NUM, '_', DCT_ORD_NUM, '_', PRS_ORD_NUM, '_', REM_TYP_AFF)",
        "person_id": "NUM_ENQ",
        "cost_event_id": "0",
        "cost_event_field_concept_id": "0",
        "cost_concept_id": "32007",
        "cost_type_concept_id": "31968",
        "cost_source_concept_id": "0",
        "cost_source_value": "ER_PRS_F__PRS_PAI_MNT",
        "currency_concept_id": "44818568",
        "cost": "ER_PRS_F__PRS_PAI_MNT",
        "incurred_date": "EXE_SOI_DTD",
        "billed_date": "ER_PRS_F__PRE_PRE_DTD",
        "paid_date": "EXE_SOI_DTD",
        "revenue_code_concept_id": "38003025",
        "drg_concept_id": "0",
        "revenue_code_source_value": "0",
        "drg_source_value": "0",
        "payer_plan_period_id": "ER_PRS_F__ORG_AFF_BEN"
      },
      "temporary_columns": {
      },
      "comments": {
        "cost_type_concept_id" : "corresponds to the provenance of the cost data so : 31968 - Payer system (primary payer)",
        "cost_concept_id" : "Montant total de la dépense - 32007 (= Cost (total cost of all cost types)",
        "cost_id" : "more infos on concepts mapping : https://docs.google.com/spreadsheets/d/1EMSNUkeW3ixLh8uHe_E8I3ambczmITsDBxVbZS1RBIM/edit#gid=0",
        "currency_concept_id": "44818568 // euros",
        "revenue_code_concept_id": "38003025 // Total Charge"
      }
    },
    "ER_ARO_F": {
      "CDM_columns": {
        "cost_id": "CONCAT(FLX_DIS_DTD, '_', FLX_TRT_DTD, '_', FLX_EMT_TYP, '_', FLX_EMT_NUM, '_', FLX_EMT_ORD, '_', ORG_CLE_NUM, '_', DCT_ORD_NUM, '_', PRS_ORD_NUM, '_', REM_TYP_AFF, '_', ARO_REM_TYP)",
        "person_id": "NUM_ENQ",
        "cost_event_id": "0",
        "cost_event_field_concept_id": "0",
        "cost_concept_id": "32000",
        "cost_type_concept_id": "31969",
        "cost_source_concept_id": "0",
        "cost_source_value": "ER_ARO_F__ARO_REM_BSE",
        "currency_concept_id": "44818568",
        "cost": "ER_ARO_F__ARO_REM_BSE",
        "incurred_date": "ER_PRS_F__EXE_SOI_DTD",
        "billed_date": "ER_PRS_F__PRE_PRE_DTD",
        "paid_date": "ER_PRS_F__EXE_SOI_DTD",
        "revenue_code_concept_id": "38003025",
        "drg_concept_id": "0",
        "revenue_code_source_value": "0",
        "drg_source_value": "0",
        "payer_plan_period_id": "ER_PRS_F__ORG_AFF_BEN"
      },
      "temporary_columns": {
      },
      "comments": {
        "cost_type_concept_id": "corresponds to the provenance of the cost data (CMU-C, Alsace Moselle, etc.) so : 31969 - Payer system (Secondary payer)",
        "cost_concept_id": "Base de remboursement // 32000 (= allowed) (maximum amount a plan will pay for a covered health care service)",
        "cost_id": "We add the type of secondary payer in the primary key to the 9 DCIR keys, more infos on concepts mapping : https://docs.google.com/spreadsheets/d/1EMSNUkeW3ixLh8uHe_E8I3ambczmITsDBxVbZS1RBIM/edit#gid=0",
        "currency_concept_id": "44818568 // euros",
        "revenue_code_concept_id": "38003025 // Total Charge",
        "payer_plan_period_id": "perhaps add the type of secondary payer ARO_REM_TYP, depends on payer_plan_period table"
      }
    },
    "ER_ARO_F": {
      "CDM_columns": {
        "cost_id": "CONCAT(FLX_DIS_DTD, '_', FLX_TRT_DTD, '_', FLX_EMT_TYP, '_', FLX_EMT_NUM, '_', FLX_EMT_ORD, '_', ORG_CLE_NUM, '_', DCT_ORD_NUM, '_', PRS_ORD_NUM, '_', REM_TYP_AFF, '_', ARO_REM_TYP)",
        "person_id": "NUM_ENQ",
        "cost_event_id": "0",
        "cost_event_field_concept_id": "0",
        "cost_concept_id": "32002",
        "cost_type_concept_id": "31969",
        "cost_source_concept_id": "0",
        "cost_source_value": "ER_ARO_F__ARO_REM_MNT",
        "currency_concept_id": "44818568",
        "cost": "ER_ARO_F__ARO_REM_MNT",
        "incurred_date": "ER_PRS_F__EXE_SOI_DTD",
        "billed_date": "ER_PRS_F__PRE_PRE_DTD",
        "paid_date": "ER_PRS_F__EXE_SOI_DTD",
        "revenue_code_concept_id": "38003025",
        "drg_concept_id": "0",
        "revenue_code_source_value": "0",
        "drg_source_value": "0",
        "payer_plan_period_id": "ER_PRS_F__ORG_AFF_BEN"
      },
      "temporary_columns": {
      },
      "comments": {
        "cost_type_concept_id" : "corresponds to the provenance of the cost data so : 31969 - Payer system (Secondary payer)",
        "cost_concept_id" : "Montant remboursé - 32002 (= Paid (amount paid by a payer to the provider for a covered care service)",
        "cost_id" : "We add the type of secondary payer in the primary key to the 9 DCIR keys, more infos on concepts mapping : https://docs.google.com/spreadsheets/d/1EMSNUkeW3ixLh8uHe_E8I3ambczmITsDBxVbZS1RBIM/edit#gid=0",
        "currency_concept_id": "44818568 // euros",
        "revenue_code_concept_id": "38003025 // Total Charge",
        "payer_plan_period_id": "perhaps add the type of secondary payer ARO_REM_TYP, depends on payer_plan_period table"
      }
    },
    "MCO_VALO": {
      "CDM_columns": {
        "cost_id": "CONCAT(ETA_NUM, '_', RSA_NUM)",
        "person_id": "MCO_C__NUM_ENQ",
        "cost_event_id": "0",
        "cost_event_field_concept_id": "0",
        "cost_concept_id": "32002",
        "cost_type_concept_id": "31968",
        "cost_source_concept_id": "0",
        "cost_source_value": "MCO_VALO__MNT_TOT_AM",
        "currency_concept_id": "44818568",
        "cost": "MCO_VALO__MNT_TOT_AM",
        "incurred_date": "MCO_C__EXE_SOI_DTD",
        "billed_date": "MCO_C__EXE_SOI_DTD",
        "paid_date": "MCO_C__EXE_SOI_DTD",
        "revenue_code_concept_id": "38003025",
        "drg_concept_id": "0",
        "revenue_code_source_value": "0",
        "drg_source_value": "0",
        "payer_plan_period_id": "IR_BEN_R__ORG_AFF_BEN"
      },
      "temporary_columns": {
      },
      "comments": {
        "cost_type_concept_id" : "corresponds to the provenance of the cost data so : 31968 - Payer system (primary payer)",
        "cost_concept_id" : "Montant remboursé - 32002 (= Paid (amount paid by a payer to the provider for a covered care service)",
        "cost_id" : "more infos on concepts mapping : https://docs.google.com/spreadsheets/d/1EMSNUkeW3ixLh8uHe_E8I3ambczmITsDBxVbZS1RBIM/edit#gid=0",
        "currency_concept_id": "44818568 // euros",
        "revenue_code_concept_id": "38003025 // Total Charge"
      }
    },
    "SSR_STC": {
      "CDM_columns": {
        "cost_id": "CONCAT(ETA_NUM, '_', RHA_NUM)",
        "person_id": "SSR_C__NUM_ENQ",
        "cost_event_id": "0",
        "cost_event_field_concept_id": "0",
        "cost_concept_id": "32002",
        "cost_type_concept_id": "31968",
        "cost_source_concept_id": "0",
        "cost_source_value": "SSR_STC__TOT_MNT_AM",
        "currency_concept_id": "44818568",
        "cost": "SSR_STC__TOT_MNT_AM",
        "incurred_date": "SSR_C__EXE_SOI_DTD",
        "billed_date": "SSR_C__EXE_SOI_DTD",
        "paid_date": "SSR_C__EXE_SOI_DTD",
        "revenue_code_concept_id": "38003025",
        "drg_concept_id": "0",
        "revenue_code_source_value": "0",
        "drg_source_value": "0",
        "payer_plan_period_id": "IR_BEN_R__ORG_AFF_BEN"
      },
      "temporary_columns": {
      },
      "comments": {
        "cost_type_concept_id" : "corresponds to the provenance of the cost data so : 31968 - Payer system (primary payer)",
        "cost_concept_id" : "Montant remboursé - 32002 (= Paid (amount paid by a payer to the provider for a covered care service)",
        "cost_id" : "more infos on concepts mapping : https://docs.google.com/spreadsheets/d/1EMSNUkeW3ixLh8uHe_E8I3ambczmITsDBxVbZS1RBIM/edit#gid=0",
        "currency_concept_id": "44818568 // euros",
        "revenue_code_concept_id": "38003025 // Total Charge"
      }
    },
    "HAD_STC": {
      "CDM_columns": {
        "cost_id": "CONCAT(ETA_NUM_EPMSI, '_', RHAD_NUM)",
        "person_id": "HAD_C__NUM_ENQ",
        "cost_event_id": "0",
        "cost_event_field_concept_id": "0",
        "cost_concept_id": "32002",
        "cost_type_concept_id": "31968",
        "cost_source_concept_id": "0",
        "cost_source_value": "HAD_STC__TOT_MNT_AM",
        "currency_concept_id": "44818568",
        "cost": "HAD_STC__TOT_MNT_AM",
        "incurred_date": "HAD_C__EXE_SOI_DTD",
        "billed_date": "HAD_C__EXE_SOI_DTD",
        "paid_date": "HAD_C__EXE_SOI_DTD",
        "revenue_code_concept_id": "38003025",
        "drg_concept_id": "0",
        "revenue_code_source_value": "0",
        "drg_source_value": "0",
        "payer_plan_period_id": "IR_BEN_R__ORG_AFF_BEN"
      },
      "temporary_columns": {
      },
      "comments": {
        "cost_type_concept_id" : "corresponds to the provenance of the cost data so : 31968 - Payer system (primary payer)",
        "cost_concept_id" : "Montant remboursé - 32002 (= Paid (amount paid by a payer to the provider for a covered care service)",
        "cost_id" : "more infos on concepts mapping : https://docs.google.com/spreadsheets/d/1EMSNUkeW3ixLh8uHe_E8I3ambczmITsDBxVbZS1RBIM/edit#gid=0",
        "currency_concept_id": "44818568 // euros",
        "revenue_code_concept_id": "38003025 // Total Charge"
      }
    },
    "RIP_STC": {
      "CDM_columns": {
        "cost_id": "CONCAT(ETA_NUM_EPMSI, '_', RIP_NUM)",
        "person_id": "RIP_C__NUM_ENQ",
        "cost_event_id": "0",
        "cost_event_field_concept_id": "0",
        "cost_concept_id": "32002",
        "cost_type_concept_id": "31968",
        "cost_source_concept_id": "0",
        "cost_source_value": "RIP_STC__TOT_MNT_AM",
        "currency_concept_id": "44818568",
        "cost": "RIP_STC__TOT_MNT_AM",
        "incurred_date": "RIP_C__EXE_SOI_DTD",
        "billed_date": "RIP_C__EXE_SOI_DTD",
        "paid_date": "RIP_C__EXE_SOI_DTD",
        "revenue_code_concept_id": "38003025",
        "drg_concept_id": "0",
        "revenue_code_source_value": "0",
        "drg_source_value": "0",
        "payer_plan_period_id": "IR_BEN_R__ORG_AFF_BEN"
      },
      "temporary_columns": {
      },
      "comments": {
        "cost_type_concept_id" : "corresponds to the provenance of the cost data so : 31968 - Payer system (primary payer)",
        "cost_concept_id" : "Montant remboursé - 32002 (= Paid (amount paid by a payer to the provider for a covered care service)",
        "cost_id" : "more infos on concepts mapping : https://docs.google.com/spreadsheets/d/1EMSNUkeW3ixLh8uHe_E8I3ambczmITsDBxVbZS1RBIM/edit#gid=0",
        "currency_concept_id": "44818568 // euros",
        "revenue_code_concept_id": "38003025 // Total Charge"
      }
    }
  }
}

