{
  "table": "payer_plan_period",
  "source_tables": {
    "ER_PRS_F": {
      "CDM_columns": {
        "payer_plan_period_id": "ORG_AFF_BEN",
        "person_id": "NUM_ENQ",
        "contract_person_id": "NUM_ENQ",
        "payer_plan_period_start_date": "0",
        "payer_plan_period_end_date": "0",
        "payer_concept_id": "0",
        "payer_source_value": "0",
        "payer_source_concept_id": "0",
        "plan_concept_id": "0",
        "plan_source_value": "0",
        "plan_source_concept_id": "0",
        "contract_source_value": "0",
        "contract_source_concept_id": "0",
        "sponsor_concept_id": "0",
        "sponsor_source_concept_id": "0",
        "family_source_value": "0",
        "stop_reason_concept_id": "0",
        "stop_reason_source_value": "0",
        "stop_reason_source_concept_id": "0)"
      },
      "temporary_columns": {
      },
      "comments": {
        "payer_plan_period_id": "TABLE not implemented, TRAVAIL EN COURS",
        "ORG_AFF_BEN" : "organisme d'affiliation et non organisme de liquidation, c'est l'organisme où est affilié le bénéficiaire des soins",
        "contract_person_id" : "LINK NUM_ENQ WITH BEN_NIR_PSA IF POSSIBLE"
      }
    },
    "IR_ORC_R": {
      "CDM_columns": {
        "payer_plan_period_id": "CONCAT(IR_ORC_R__BEN_CMU_ORG, '_',BEN_CTA_TYP,'_', MLL_CTA_DSD, '_', MLL_CTA_DSF)",
        "person_id": "NUM_ENQ",
        "contract_person_id": "NUM_ENQ",
        "payer_plan_period_start_date": "MLL_CTA_DSD",
        "payer_plan_period_end_date": "MLL_CTA_DSF",
        "payer_concept_id": "327",
        "payer_source_value": "IR_ORC_R__BEN_CMU_ORG",
        "payer_source_concept_id": "0",
        "plan_concept_id": "268",
        "plan_source_value": "BEN_CTA_TYP",
        "plan_source_concept_id": "0",
        "contract_source_value": "0",
        "contract_source_concept_id": "0",
        "sponsor_concept_id": "0",
        "sponsor_source_concept_id": "0",
        "family_source_value": "0",
        "stop_reason_concept_id": "0",
        "stop_reason_source_value": "0",
        "stop_reason_source_concept_id": "0)"
      },
      "temporary_columns": {
      },
      "comments": {
        "payer_plan_period_id": "TABLE not implemented, TRAVAIL EN COURS",
        "ORG_AFF_BEN" : "organisme d'affiliation et non organisme de liquidation, c'est l'organisme où est affilié le bénéficiaire des soins",
        "contract_person_id" : "LINK NUM_ENQ WITH BEN_NIR_PSA IF POSSIBLE",
        "payer_concept_id" : "327 / Private Health Insurance, but includes CMU-C and ACS",
        "plan_concept_id" : "268 / Broad benefit (Medical, Drug, Dental, Vision) plan",
        "contract_concept_id" : "if BEN_NIR_PSA and BEN_NIR ANO are equal, same person, if not beneficiary or pb with NIR_ANO",
        "sponsor_concept_id" : "individual or collective insurance, we do not have this information in clear."
      }
    }
  }
}

