local_concept_name,local_concept_code,local_vocabulary,local_frequency
GENOME (ADN) : MYCOBACTERIES HYBRID MOLEC : DIAG D'ESPECE ET IDENT,4101,er_bio_f_nabm,1
"DEBIT URIN. HEMATIES ET LEUCOCYTES PAR MINUTE (ADDIS, H.L.M,CULOT URIN QUANT)",220,er_bio_f_nabm,1
CLONAZEPAM (RIVOTRIL),1669,er_bio_f_nabm,1
DPN : ET. FAMILIALE : MUCOVISCIDOSE : POLYMORPHISME DE L'ADN,4042,er_bio_f_nabm,1
"GROUPAGE GRANULOCYTAIRE (NA, NB, NC, ND, NE)",161,er_bio_f_nabm,1
INFECTION PAR LE VIRUS DU CHIKUNGUNYA RECHERCHE DES IGM ET DES IGG PAR EIA A REALISER UNIQUEMENT E,1254,er_bio_f_nabm,1
INFECTION A HTLV (I ET II) : SD DE DEPISTAGE PAR EIA,1754,er_bio_f_nabm,1
UR. : PHOSPHORE MINERAL(PHOSPHATURIE),629,er_bio_f_nabm,1
DPN : ET. FAMILIALE : HEMOPHILIES,4080,er_bio_f_nabm,1
MICROALBUMINURIE (DOSAGE IMMUNOCHIMIQUE A L'EXCLUSION DES BANDELETTES). - EN SUIVI THERAPEUTIQUE (D,1133,er_bio_f_nabm,2
PHOSPHATASES ALCALINES,514,er_bio_f_nabm,3
UR. : PORPHYRINES : RECHERCHE,637,er_bio_f_nabm,1
UR. : CALCIUM (CALCIURIE),624,er_bio_f_nabm,1
T.S.H. + T3 LIBRE + T4 LIBRE. EXAMEN DE DIAGNOSTIC D'UNE  DYSTHYROIDIE DE DEUXIEME INTENTION OU EXAM,1212,er_bio_f_nabm,2
SANG : BILIRUBINE (BIL),1601,er_bio_f_nabm,2
"COMBINAISON DE CINQ MARQUEURS SANGUINS : ALPHA2-MACROGLOBULINE, HAPTOGLOBINE, APOLIPOPROTEINE A1, B",1000,er_bio_f_nabm,1
"EX MICROBIO P. OCULAIRE (CORNEES, LENTILLES...) ACANTHAMOEBA",5218,er_bio_f_nabm,1
CANDIDOSE : SUIVI DU SD DE DEPISTAGE PAR 1 TECHN. + ITERATIF,6312,er_bio_f_nabm,1
ACIDE LACTIQUE.,530,er_bio_f_nabm,1
MAI : AUTOAC CELLULES PRODUCTRICES DE STEROIDES PAR IFI,1495,er_bio_f_nabm,1
TRICHINOSE : SD DE CONFIRMATION PAR IELP,4359,er_bio_f_nabm,1
HERPES SIMPLEX (VHS) : SD : AC IGG ANTI VHS  1 + 2 PAR IFII,1745,er_bio_f_nabm,1
UR. : TYPAGE DE LA NATURE D'UNE  PROTEINURIE,1620,er_bio_f_nabm,1
MAI NSO : AC ANTI-ADN NATIF PAR METH. MARQUEUR SUR AUTRE LIQ BIOL QUE SANG,1555,er_bio_f_nabm,1
COLORATION DES SPERMATOZOIDES AU BLEU D'ANILINE,81,er_bio_f_nabm,1
MYCOPLASMOSES RESPIRATOIRES :  SERODIAGNOSTIC AVEC ANTICORPS TOTAUX  PAR RFC OU AGG,1313,er_bio_f_nabm,1
RECHERCHE DE LA MUTATION G1691A DU GENE DU FACTEUR V (FACTEUR V LEIDEN) ET RECHERCHE DE LA MUTATI,1031,er_bio_f_nabm,1
MAI : AUTOAC ANTIMEMB. BASALE GLOMERUL. PAR IFI,1496,er_bio_f_nabm,1
ACIDE VANILMANDELIQUE (METABOLITE DES  CATECHOLAMINES) URINAIRE,467,er_bio_f_nabm,1
ROUGEOLE : SD CONTROLE D'IMMUNITE : IGG OU IG TOTALES PAR IHA,1772,er_bio_f_nabm,1
LIPASEMIE. LES COTATIONS DES ACTES 1510 ET 0524 NE SONT PAS  CUMULABLES.,524,er_bio_f_nabm,2
BENZODIAZEPINES : RECHERCHE DANS UN AUTRE LIQUIDE BIOLOGIQUE QUE LE SANG,667,er_bio_f_nabm,1
LIQUIDES DE SEROSITE : DOSAGE DE DEUX  PROTEINES OU PLUS,1634,er_bio_f_nabm,1
TRANSFERRINE  DESIALYLEE OU DEGLYCOSYLEE OU TRANSFERRINE  CARBOXY DEFICIENTE (CDT). CET ACTE N'EST,779,er_bio_f_nabm,1
LEISHMANIOSE : SD DE DEPISTAGE PAR 2 TECHN.,4344,er_bio_f_nabm,1
DPN PROPREMENT DIT : ACTIVITE ENZ : TYPE PHOSPHATASE ALCALINE,4022,er_bio_f_nabm,1
17-OH-PROGESTERONE,1135,er_bio_f_nabm,1
DOSAGE FONCTIONNEL DU FACTEUR WILLEBRAND PAR MESURE DE L'ACTIVITE COFACTEUR DE LA RISTOCETINE (OU A,192,er_bio_f_nabm,1
PALUDISME : SD PAR IFI,4354,er_bio_f_nabm,1
DOSAGE DE L'AZOTE FECAL SOLUBLE.,1418,er_bio_f_nabm,1
T.S.H. + T3 LIBRE (SANG),1210,er_bio_f_nabm,1
MAI NSO : AC ANTIHISTONES : TITRAGE,1459,er_bio_f_nabm,1
RECHERCHES INDIRECTES D'AC ANTISPERMATOZOIDES (HOMME),77,er_bio_f_nabm,1
INFECTION A VRS : SD : DEPISTAGE AC PAR EIA,3787,er_bio_f_nabm,1
HEPATITE A (VHA) : SD : IGM (INFECTION RECENTE) PAR EIA,350,er_bio_f_nabm,1
DERIVES DIHYDROXYLES DE LA VITAMINE D. UNE SEULE COTATION PAR  PATIENT.,1820,er_bio_f_nabm,1
DOSAGE D'ANALGESIQUES OU DE STUPEFIANTS NON NOMMEMENT INSCRITS A LA NABM DANS LE SANG. CET EXAMEN,1659,er_bio_f_nabm,1
BENZODIAZEPINES : RECHERCHE (SANG),1667,er_bio_f_nabm,1
VITAMINE B6 : DOSAGE,7305,er_bio_f_nabm,1
DOSAGE DE L'ACTIVITE COAGULANTE DU FACTEUR XII,181,er_bio_f_nabm,1
ESTRADIOL DANS LE SANG (CHEZ LA FEMME),330,er_bio_f_nabm,2
INSULINE LIBRE,703,er_bio_f_nabm,1
ETUDE D'UNE EJACULATION RETROGRADE,80,er_bio_f_nabm,1
DOSAGE DE L'ELASTASE FECALE. CET ACTE EST INDIQUE DANS LE DIAGNOSTIC DES INSUFFISANCES PANCREATIQUE,1506,er_bio_f_nabm,1
DETERMINATION ELECTROMETRIQUE DU PH.,1419,er_bio_f_nabm,1
THYROXINE LIBRE (T4 LIBRE OU FT4) (SANG),1207,er_bio_f_nabm,1
DOSAGE D'ACIDES ORGANIQUES.,1501,er_bio_f_nabm,1
TEST DE DETECTION DU GENOME (ADN) DES PAPILLOMAVIRUS HUMAINS ONCOGENES. INDICATION : SELON LES RECO,24,er_bio_f_nabm,1
LEGIONELLOSES : SERODIAGNOSTIC : TITRAGE AVEC SIX ANTIGENES ET PLUS + ITERATIF,3337,er_bio_f_nabm,1
PDF : DOSAGE (D DIMERES  ...),177,er_bio_f_nabm,1
LCR : PROTEINES TOTALES (PROTEINORACHIE),1613,er_bio_f_nabm,1
FIEVRE JAUNE (CONTROLE D'IMMUNITE) PAR SERONEUTRALISATION LA PRISE EN CHARGE DE L'ACTE 1709 EST LI,1709,er_bio_f_nabm,1
TOXOPLASMOSE CAS GENERAL :  INOCULATION SOURIS,1425,er_bio_f_nabm,1
"MYCOPLASMES : CULTURES SUR MILIEUX SPECIAUX,NUMERATION,CARACTERISATION",5253,er_bio_f_nabm,1
CARBAMAZEPINE (TEGRETOL),325,er_bio_f_nabm,1
F.S.H. DANS LE SANG,473,er_bio_f_nabm,2
HEPATITE DELTA (VHD) : SD :AC IGG OU TOTAUX PAR EIA,1740,er_bio_f_nabm,1
"INFECTION A VIH 1 ET 2 :   0390 DEUX REACTIONS OU PLUS (VIH 1, VIH  2)   LES COTATIONS 0389 ET 0",390,er_bio_f_nabm,1
INHIBINES. UNE SEULE COTATION PAR PATIENT.,777,er_bio_f_nabm,1
MYCOPLASMOSES RESPIRATOIRES : SERODIAGNOSTIC : IGG PAR EIA + ITERATIF,3246,er_bio_f_nabm,1
IDENTIF BIOCHIMIQUE ET/OU ANTIGENIQUE D'UNE BACTERIE ANAEROBIE,5292,er_bio_f_nabm,1
MAI NSO : AC ANTI-ADN DENATURE : TITRAGE,1458,er_bio_f_nabm,1
BARTURIQUES : RECHERCHE ET DOSAGE DANS UN AUTRE LIQUIDE BIOLOGIQUE QUE LE SANG,674,er_bio_f_nabm,1
SANG : APOLIPOPROTEINE B. L'ACTE EST INDIQUE DANS LES SITUATIONS SUIVANTES : - MALADIE GENETIQUES,1602,er_bio_f_nabm,1
RAI : IDENTIFICATION,1131,er_bio_f_nabm,1
LCR : RECHERCHE OU TYPAGE D'UNE DYSGLOBULINORACHIE MONOCLONALE OU  OLIGOCLONALE,1616,er_bio_f_nabm,1
"EX MICROBIO DE LIQ DE PONCTION (LCR, ARTICULATION, PERITOINE, ...)",5231,er_bio_f_nabm,1
DEPISTAGE D'UN ANTICOAGULANT CIRCULANT  PAR LE TEST DE CORRECTION DU TEMPS DE  CEPHALINE + ACTIVATE,182,er_bio_f_nabm,1
CYTOPATH. GYNECOLOGIQUE UN OU PLUSIEURS PRELEVEMENTS (FROTTIS),13,er_bio_f_nabm,2
INFECTION PAR LES VIRUS DE LA DENGUE -  RECHERCHE DES IGG ET DES IGM + EXAMEN ITERATIF PAR EIA IN,3255,er_bio_f_nabm,1
UR. : ACIDES AMINES LIBRES CARACTERISATION PAR CHROMATOGRAPHIE,990,er_bio_f_nabm,1
DPN : C. INDEX - ET. FAMILIALE : CULTURES CELLULAIRES,4030,er_bio_f_nabm,1
TEST DE MIGRATION-SURVIE DES SPERMATOZOIDES,75,er_bio_f_nabm,1
UR. : RECHERCHE DE SANG (HEMATIES ET/OU HEMOGLOBINE),640,er_bio_f_nabm,1
ETHOSUXIMIDE (ZARONTIN),328,er_bio_f_nabm,1
ARBOVIROSES : RECHERCHE IGG SPECIFIQUES PAR EIA + ITERATIF,3708,er_bio_f_nabm,1
HBA1C : DOSAGE,1577,er_bio_f_nabm,3
"CREATININE POUR LES ACTES 0592 ET 0593, IL EST  RECOMMANDE  POUR LE DOSAGE DE LA  CREATININE D'UTILI",592,er_bio_f_nabm,3
PROGESTERONE,334,er_bio_f_nabm,1
COMPLEMENT A LA COTATION MINIMALE DE  VALEUR B 9 (SANG). LA COTATION MINIMALE D'UN OU DE  PLUSIEUR,9923,er_bio_f_nabm,1
"AMYLASE (AUTRE LIQUIDE BIOLOGIQUE). POUR LES EXAMENS 1510 ET 1511, COTATION MAXIMUM DE DEUX DOSAGES",1511,er_bio_f_nabm,1
"EXAMEN PHYSIQUE COMPLET D'UNE SELLE, COMPORTANT AU MINIMUM LE POIDS MOYEN, LE POIDS SEC, UN EXAMEN",1622,er_bio_f_nabm,1
COMPLEMENT A LA COTATION MINIMALE DE VALEUR B 5 (SANG). LA COTATION MINIMALE D'UN OU DE PLUSIEURS,9905,er_bio_f_nabm,2
DETERMINATION SEMI-QUANTITATIVE DES D-DIMERES OU DES PDF (PRODUITS DE DEGRADATION DU FIBRINOGENE ET,1021,er_bio_f_nabm,1
,1617,er_bio_f_nabm,1
RICKETTSIALES : EX. DIRECT ET ISOLEMENT,250,er_bio_f_nabm,1
VIRUS DE L'HEPATITE DELTA (VHD) : DETECTION QUALITATIVE DE L'ARN VIRAL,4118,er_bio_f_nabm,1
"ECHINOCOCCOSES  (KYSTE HYDATIQUE, ...) : SUIVI DU SD DE DEPIST. PAR 1 TECHN. + I",6328,er_bio_f_nabm,1
INFECTION NOSOCOMIALE : COTATION SUPPLEMENTAIRE,5229,er_bio_f_nabm,1
SANG : AMMONIAQUE,536,er_bio_f_nabm,1
RECHERCHE DE CRYOGLOBULINES APRES SEPARATION EXTEMPORANEE DU SERUM A LA TEMPERATURE DE 37 C,1573,er_bio_f_nabm,1
INFECTION PARASITAIRE NON NOMMEMENT INSCRITE A LA NABM : SERODIAGNOSTIC (SD),4362,er_bio_f_nabm,1
GRIPPES A ET B : SD CONTROLE D'IMMUNITE PAR IHA,3780,er_bio_f_nabm,1
TRISOMIE 21 F TALE : DEPISTAGE AU  DEUXIEME TRIMESTRE  PAR LES  MARQUEURS  SERIQUES MATERNELS. CET E,4004,er_bio_f_nabm,1
INFECTION A ADENOVIRUS : SD PAR RFC,1701,er_bio_f_nabm,1
"SECRETIONS, EXSUDATS ET ULCERATIONS DE LOCALISATION GENITALE ET ANO-GENITALE  CHEZ L'HOMME.  OUTR",5203,er_bio_f_nabm,1
RECHERCHE DE LA MUTATION G1691A DU GENE DU FACTEUR V (FACTEUR V LEIDEN) LES TESTS GENETIQUES (ACTES,1029,er_bio_f_nabm,1
DOSAGE DE L'ACTIVITE COAGULANTE DES FACTEURS VII + X LA  COTATION DE L'ACTE 1032 N'EST PAS CUMULAB,1032,er_bio_f_nabm,1
PARASITES : EX. DIRECT ET/OU ENRICHISSEMENT SAUF DANS SANG ET SELLES,268,er_bio_f_nabm,1
VIRUS GRIPPAUX (A ET B) : CULTURES ORIENTEES ET IDENTIFICATION,4242,er_bio_f_nabm,1
"CYTOPATH. LIQ. EPANCHEMENT, LAVAGE ALVEOLAIRE OU VESICAL, LCR",14,er_bio_f_nabm,1
VIRUS DE L'IMMUNODEFICIENCE HUMAINE (VIH) : TEST DE RESISTANCE GENOTYPIQUE AUX ANTIRETROVIRAUX PAR,805,er_bio_f_nabm,1
"EXPLORATION DE BASE DE L'HEMOSTASE COMPRENANT NUMERATION DES PLAQUETTES, MESURE DU TEMPS DE QUICK E",1128,er_bio_f_nabm,1
M. COELIAQUE : AUTOAC ANTICELLULES ENDOMYSIALES : TITRAGE PAR IFI,1475,er_bio_f_nabm,1
MAI : AUTOAC ANTIMEMB. BASALE GLOMERUL. PAR METH MARQUEUR,1497,er_bio_f_nabm,1
DPN : BETA-THALASSEMIE : POLYMORPHISME DE L'ADN,4057,er_bio_f_nabm,1
COMPLEMENT A LA COTATION MINIMALE DE  VALEUR B 6 (SANG). LA COTATION MINIMALE D'UN OU DE  PLUSIEUR,9920,er_bio_f_nabm,1
PLOMB (PB) DANS UN AUTRE LIQUIDE BIOLOGIQUE QUE LE SANG,566,er_bio_f_nabm,1
INFECTION PAR LES VIRUS DE LA DENGUE - RECHERCHE DES IGG ET DES IGM PAR EIA A REALISER UNIQUEMENT,1255,er_bio_f_nabm,1
SYPHILIS : SERODIAGNOSTIC DE DEPISTAGE,1326,er_bio_f_nabm,2
DPN : RECHERCHE DE L'ADN DU CYTOMEGALOVIRUS (CMV),4065,er_bio_f_nabm,1
"DETECTION DE L'ARN DES VIRUS DE LA DENGUE,  DU     CHIKUNGUNYA ET ZIKA PAR RT-PCR SUR  PRELEVEMENT",5265,er_bio_f_nabm,1
FIEVRE Q (COXIELLA BURNETTI) :  SERODIAGNOSTIC DE DEPISTAGE AVEC UN  ANTIGENE DE PHASE II (IFI),1316,er_bio_f_nabm,1
TESTOSTERONE (CHEZ L'HOMME),357,er_bio_f_nabm,1
ASPERGILLOSE : SD DE CONFIRMATION PAR COES,4308,er_bio_f_nabm,1
OREILLONS (V. OURLIEN) : INFECTION RECENTE : SD : IGG + IGM PAR IFI,1756,er_bio_f_nabm,1
COMPLEMENT A LA COTATION MINIMALE DE  VALEUR B 1 (SANG). LA COTATION MINIMALE D'UN OU DE  PLUSIEUR,9916,er_bio_f_nabm,1
DIHYDROTESTOSTERONE (DHT),7415,er_bio_f_nabm,1
SYPHILIS : SERODIAGNOSTIC : RECHERCHE  DES IGM,1330,er_bio_f_nabm,1
"PROTEINE DE TRANSPORT DES HORM. SEXUELLES (TEBG, SBG) (SANG)",358,er_bio_f_nabm,1
RECHERCHE OU TITRAGE D'AUTOANTICORPS ANTIENDOMYSIUM DE CLASSE IGG PAR IMMUNOFLUORESCENCE INDIRECTE.,1831,er_bio_f_nabm,1
"LITHIUM (LI , LITHIEMIE , LI SERIQUE , LI ERYTHROCYTAIRE) (SANG)",557,er_bio_f_nabm,1
RECHERCHE OU TITRAGE D'AUTOANTICORPS ANTITRANSGLUTAMINASE DE CLASSE IGA. L'ANTIGENE UTILISE DOIT ET,1828,er_bio_f_nabm,1
DOSAGE DE L'ACTIVITE COAGULANTE DU FACTEUR IX (ANTIHEMOPHILIQUE B),179,er_bio_f_nabm,1
MESURE DE L'ACTIVITE ANTI-FACTEUR X  ACTIVE (ANTI-XA) DE L'HEPARINE OU D'UN  DERIVE HEPARINIQUE,186,er_bio_f_nabm,1
HEPATITE B (VHB):SD HEPATITE CHRONIQUE:AG HBS+AG HBE+AC  ANTI-HBE PAR EIA,4711,er_bio_f_nabm,1
DOSAGE DU COMPLEMENT CH50 PAR REACTION D'HEMOLYSE,316,er_bio_f_nabm,1
FECONDATION IN VITRO PAR MICROMANIPULATION (ICSI). CET ACTE COMPREND LES MEMES ELEMENTS QUE LA FIV,61,er_bio_f_nabm,1
YERSINIOSES : SERODIAGNOSTIC AVEC 1  SEUL ANTIGENE (AGG OU RFC),1334,er_bio_f_nabm,1
"LIDOCAINE (XYLOCAINE, ...)",1676,er_bio_f_nabm,1
PARATHORMONE PTHRP : DOSAGE,785,er_bio_f_nabm,1
SEROTYPAGE D'UNE ESPECE BACTERIENNE,5249,er_bio_f_nabm,1
HORMONE ANTIDIURETIQUE OU VASOPRESSINE (ADH),745,er_bio_f_nabm,1
"EX MICROBIO PREL DIVERS : CATHET, CHAMBR IMPLANT, PROTHESE, VALVES",5216,er_bio_f_nabm,1
GRIPPE B : SD PAR IHA,1734,er_bio_f_nabm,1
VARICELLE-ZONA : SD INF RECENTE OU RECURRENCE : IGG + IGM PAR IFI,1778,er_bio_f_nabm,1
INFECTION A CMV RECENTE  SD : IGG + IGM PAR EIA,1713,er_bio_f_nabm,1
GRIPPE A : SD PAR RFC + ITERATIF,3729,er_bio_f_nabm,1
TEST A L'ISOPROPANOL (HEMOGLOBINE INSTABLE),1117,er_bio_f_nabm,1
IGG,1815,er_bio_f_nabm,1
VIRUS DE VARICELLE ET ZONA : CULTURES ORIENTEES ET IDENTIFICATION,4234,er_bio_f_nabm,1
MARQUEURS DE L'OSTEOPOROSE. DEOXYPYRIDINOLINE ET PEPTIDES ASSOCIES (PRODUITS DE DEGRADATION DU COLL,7310,er_bio_f_nabm,1
"DOSAGE D'UN AUTRE IMMUNOSUPPRESSEUR (TACROLIMUS, SIROLIMUS, EVEROLIMUS...)",1377,er_bio_f_nabm,1
TESTOSTERONE LIBRE OU BIODISPONIBLE DANS LE SANG,701,er_bio_f_nabm,1
VIRUS DE VARICELLE ET ZONA : RECHERCHE DIRECTE PAR IF,4232,er_bio_f_nabm,1
LEISHMANIOSE : SD DE CONFIRMATION PAR IE,4345,er_bio_f_nabm,1
ECP (EOSINO CATIONIQUE PROTEINE) EN ALLERGIE,823,er_bio_f_nabm,1
"ANTIBIOTIQUE(AMINOSIDES,VANCOMYCINE,...) : UN DOSAGE (SANG)",1650,er_bio_f_nabm,1
CONGELATION DE SPERME AU COURS D'UNE AMP  OU  EN VUE D'UNE AUTOCONSERVATION ASSOCIEE A  UN  TRAIT,65,er_bio_f_nabm,1
EX MYCO ISOLE CHAMPIGNON EXOTIQUE EX DIRECT ET CULTURE,255,er_bio_f_nabm,1
ALUMINIUM (AL) DANS UN AUTRE LIQUIDE BIOLOGIQUE QUE LE SANG,679,er_bio_f_nabm,1
DOSAGE DE L'ACTIVITE COAGULANTE DU FACTEUR V (PROACCELERINE),1015,er_bio_f_nabm,1
MAI NSO : AUTOAC ANTICYTOPLASME DE PNN (ANCA) PAR IFI : TITRAGE,1462,er_bio_f_nabm,1
PDF : RECHERCHE,176,er_bio_f_nabm,1
INFECTION A EBV RECENTE OU EVOLUTIVE : SD : AC VCA IGM OU AC EA IGM PAR IFI,1717,er_bio_f_nabm,1
RAGE : SD INFECTION RECENTE : IGG + IGM PAR EIA,1766,er_bio_f_nabm,1
TOXOPLASMOSE GROSSESSE : SUIVI : SD DE SURVEILLANCE (2 ISOTYPES DIFFERENTS),1432,er_bio_f_nabm,2
HISTOPATH. PRELEV. RESEC. OU CURETAGE ENDOSC. OU ENDOCAVIT.,7,er_bio_f_nabm,1
DOSAGE DE L'ACTIVITE COAGULANTE DU FACTEUR VII    (PROCONVERTINE) LA  COTATION DE L'ACTE 1032 N'EST,1016,er_bio_f_nabm,1
"UN FACTEUR DU COMPLEXE PROTHROMBINIQUE (II, V, VII OU X) : DOSAGE",130,er_bio_f_nabm,1
BETA 2 MICROGLOBULINE DANS UN AUTRE  MILIEU BIOLOGIQUE QUE LE SANG : DOSAGE,321,er_bio_f_nabm,1
LYSOZYME OU MURAMIDASE (SANG),1533,er_bio_f_nabm,1
"ISONIAZIDE (INH,RIMIFON)ET SON METABOLITE (SANG)",1653,er_bio_f_nabm,1
LIQUIDES DE SEROSITE : PROTEINES : DOSAGE,691,er_bio_f_nabm,1
"DISOPYRAMIDE (ISORYTHM, RYTHMODAN)",1675,er_bio_f_nabm,1
RECHERCHE DES PIGMENTS BILIAIRES.,1500,er_bio_f_nabm,1
ANTIGENE CA 125 DANS UN AUTRE MILIEU BIOLOGIQUE QUE LE SANG : DOSAGE,1823,er_bio_f_nabm,1
"ECHINOCOCCOSES (KYSTE HYDATIQUE, ...) : SD DE CONFIRMATION PAR COES",4329,er_bio_f_nabm,1
"EPREUVE D'HYPERGLYCEMIE PROVOQUEE (AU MOINS QUATRE DOSAGES), Y COMPRIS RECHERCHES ET, EVENTUELLEMEN",412,er_bio_f_nabm,1
ARBOVIROSES : RECHERCHE IGG SPECIFIQUES PAR EIA,1708,er_bio_f_nabm,1
LIQUIDES DE SEROSITE :ELECTROPHORESE DES PROTEINES(PROTEINOGRAMME),693,er_bio_f_nabm,1
LARVES D'ANGUILLULES (BAERMANN) : RECHERCHE DANS SELLES,264,er_bio_f_nabm,1
MAL. POUMON ELEVEUR D'OISEAUX : SUIVI DU SD DE DEPISTAGE + ITERATIF,6347,er_bio_f_nabm,1
VIRUS DE L'IMMUNODEFICIENCE HUMAINE (VIH): TEST DE RESISTANCE GENOTYPIQUE AUX ANTIRETROVIRAUX PAR S,806,er_bio_f_nabm,1
FERRITINE ERYTHROCYTAIRE : DOSAGE,7311,er_bio_f_nabm,1
ETUDE COMPLEMENTAIRE DE CYTOCHIMIE (MOELLE OU SANG),1102,er_bio_f_nabm,1
TULAREMIE : SERODIAGNOSTIC PAR AGG,1333,er_bio_f_nabm,1
INFECTION A ADENOVIRUS : SD PAR EIA,1704,er_bio_f_nabm,1
VARICELLE-ZONA : DIAGNOSTIC D'UNE  INFECTION RECENTE OU D'UNE RECURRENCE :  IGG ET IGM PAR EIA,1777,er_bio_f_nabm,1
ANTIGENE DU CARCINONE A CELLULES SQUAMEUSES (SCC),812,er_bio_f_nabm,1
"PHENOBARBITAL (GARDENAL, ...)",333,er_bio_f_nabm,1
METHOTREXATE (SANG),1655,er_bio_f_nabm,1
GENOME (ADN) : VIRUS DE L'HEPATITE B (VHB): HYBRIDATION MOLECULAIRE,4120,er_bio_f_nabm,1
"VIRUS PARAINFLUENZAE (I, II, III, IV) : RECHERCHE DIRECTE PAR IF",4243,er_bio_f_nabm,1
ESTRADIOL DANS LE SANG (HOMME ET ENFANT),727,er_bio_f_nabm,1
CMI LEVURES,5280,er_bio_f_nabm,1
HISTOPLASMOSE : SD DE DEPISTAGE,4336,er_bio_f_nabm,1
LEPTOSPIROSE DETECTION DE L'ADN DU GENRE LEPTOSPIRA PAR AMPLIFICATION GENIQUE EN TEMPS REEL A REA,5262,er_bio_f_nabm,1
GRIPPE A : SD PAR IHA,1731,er_bio_f_nabm,1
UR. : OXALURIE + CITRATURIE + MAGNESURIE,2013,er_bio_f_nabm,1
,1528,er_bio_f_nabm,1
VIRUS OURLIEN (OREILLONS) : RECHERCHE DIRECTE PAR EIA,4251,er_bio_f_nabm,1
EXAMEN ANATOMOPATHOLOGIQUE PAR  HYBRIDATION IN SITU. INDICATION : SELON LES RECOMMANDATIONS  DE BO,25,er_bio_f_nabm,1
IDENTIF. D'UNE TOXINE BACTERIENNE PAR TECHN. IMMUNOLOGIQUE,237,er_bio_f_nabm,1
GRIPPE A : SD PAR RFC,1729,er_bio_f_nabm,1
PHENOTYPAGE DES CELLULES ANORMALES (MOELLE OU SANG),1103,er_bio_f_nabm,1
DPN : ALLOIMMUNISATION FOETO-MATERNELLE,4076,er_bio_f_nabm,1
MAI NSO : AUTOAC ANTINUCLEAIRES (AAN) PAR IF SUR CELLULES HEP 2,1453,er_bio_f_nabm,1
"PLUS DE 2 FACT. DU COMPLEXE PROTHROMBINIQUE (II, V, VII, X) : DOSAGES",132,er_bio_f_nabm,1
ANTIEPILEPTIQUE NON INSCRIT A LA NABM (DANS UN AUTRE LIQUIDE BIOL QUE LE SANG),671,er_bio_f_nabm,1
EX MICROBIO PUS (COLLECTION FERMEE),5224,er_bio_f_nabm,1
CULOT URINAIRE CYTOLOGIE URINES AVEC ETUDE DES CRISTAUX,219,er_bio_f_nabm,1
DPN : RECHERCHE DE L'ARN DU VIRUS DE LA RUBEOLE,4069,er_bio_f_nabm,1
CATECHOLAMINES OU METANEPHRINES URINAIRES AVEC FRACTIONNEMENT (AU MOINS DEUX DOSAGES),477,er_bio_f_nabm,1
RUBEOLE : SD PAR IHA OU EIA,1773,er_bio_f_nabm,2
DEHYDROEPIANDROSTERONE (DHA) PLASMATIQUE. LA PRISE EN  CHARGE DE L'EXAMEN EST LIMITEE AUX MALADIES,7414,er_bio_f_nabm,1
ESTRADIOL DANS UN AUTRE MILIEU BIOLOGIQUE QUE LE SANG,1801,er_bio_f_nabm,1
MESURE DES CONCENTRATIONS PLASMATIQUES DES ANTIRETROVIRAUX,4117,er_bio_f_nabm,1
"ANTIBIOTIQUE (AMINOSIDES,VANCOMYCINE,...):DEUX DOSAGES DU MEME (SANG)",1651,er_bio_f_nabm,1
LEGIONELLOSES : SERODIAGNOSTIC :  TITRAGE AVEC SIX ANTIGENES ET PLUS,1337,er_bio_f_nabm,1
INFECTIONS PULMONAIRES A CHLAMYDIA  PNEUMONIAE : SERODIAGNOSTIC,1308,er_bio_f_nabm,1
ALDOSTERONE PLASMATIQUE,714,er_bio_f_nabm,1
HEPATOPATHIES : AUTOAC ANTIMEMBRANE NUCLEAIRE : IDENT. CIBLES,1473,er_bio_f_nabm,1
ANISAKIASE : SD DE DEPISTAGE PAR 2 TECHN.,4304,er_bio_f_nabm,1
INFECTION A EBV : MONONUCLEOSE INFECTIEUSE (MNI) : AC HETEROPHILES : RECHERCHE,3786,er_bio_f_nabm,1
"INFECTIONS UROGENITALES A CHLAMYDIA TRACHOMATIS : SERODIAGNOSTIC (IGG ET, EN CAS DE POSITIVITE, IGA",3307,er_bio_f_nabm,1
CYTOPATH. SUR PONCTIONS PLUSIEURS ZONES DE VOISINAGE,16,er_bio_f_nabm,1
"FECONDATION IN VITRO SANS MICROMANIPULATION Y COMPRIS LA CULTURE OVOCYTAIRE, LA PREPARATION DES SP",60,er_bio_f_nabm,1
VIRUS GRIPPAUX (A ET B) : RECHERCHE DIRECTE PAR EIA,4241,er_bio_f_nabm,1
DPN : ET. FAMILIALE : X FRAGILE,4050,er_bio_f_nabm,1
UR. : PH : MESURE ELECTROMETRIQUE,630,er_bio_f_nabm,1
DOSAGE DE L'ACTIVITE COAGULANTE DU FACTEUR VIII (ANTIHEMOPHILIQUE A),178,er_bio_f_nabm,1
HEPATOPATHIES : AC ANTIMITOCHONDRIES : TYPAGE PAR IMMUNOBLOT,1471,er_bio_f_nabm,1
CARYOTYPE CONSTITUTIONNEL PRENATAL :  TECHNIQUES AVEC INCUBATION SANS  CHANGEMENT DE MILIEU. LES C,40,er_bio_f_nabm,1
,1532,er_bio_f_nabm,1
ASPERGILLOSE : SD DE CONFIRMATION PAR IELP,4309,er_bio_f_nabm,1
ARBOVIROSES : RECHERCHE IGM SPECIFIQUES PAR EIA,1707,er_bio_f_nabm,1
"IMMUNOGLOBULINES IGG1, IGG2, IGG3, IGG4, 3 PARAMETRES OU PLUS : DOSAGES",1394,er_bio_f_nabm,1
HEPATITE B (VHB) : SD : AC ANTIHBE PAR EIA,354,er_bio_f_nabm,1
HEPATOPATHIES : AC ANTIMUSCLE LISSE : TYPAGE,1467,er_bio_f_nabm,1
HAPTOGLOBINE,1813,er_bio_f_nabm,1
VITAMINE A : DOSAGE,7301,er_bio_f_nabm,1
SYPHILIS : SERODIAGNOSTIC : TEST DE CONFIRMATION DES IGM PAR IMMUNO-EMPREINTE,1251,er_bio_f_nabm,1
OREILLONS (V. OURLIEN) : IMMUNITE ANCIENNE : SD : IGG PAR EIA,1758,er_bio_f_nabm,1
SCHISTOSOMIASE : SD DE CONFIRMATION PAR IELP,4356,er_bio_f_nabm,1
PHOSPHATASE ALCALINE OSSEUSE.,7309,er_bio_f_nabm,1
EPREUVE DIRECTE COMPATIBILITE POUR CHAQUE UNITE SANG,1152,er_bio_f_nabm,1
DIABETE INSULINODEPENDANT : TITRAGE DES AUTOANTICORPS ANTI-INSULINE PAR IMMUNO-PRECIPITATION D'INSU,1482,er_bio_f_nabm,1
TOXOPLASMOSE GROSSESSE : INOCULATION SOURIS,1435,er_bio_f_nabm,1
DISTOMATOSE : SUIVI DU SD DE DEPISTAGE PAR 1 TECHN. + ITERATIF,6324,er_bio_f_nabm,1
EPREUVE SIMPLIFIEE D'HYPERGLYCEMIE,413,er_bio_f_nabm,1
C3,1811,er_bio_f_nabm,1
DPN : ANOMALIE DES PLAQUETTES (GLANZMANN ...),4096,er_bio_f_nabm,1
HISTOPATH. BIOPSIES ETAGEES SUR MEME ORGANE ET INDIVIDUALISEES,5,er_bio_f_nabm,1
ANTICORPS ANTIPLAQUETTAIRES : IDENTIFICATION,163,er_bio_f_nabm,1
FIEVRE Q CHRONIQUE (COXIELLA BURNETTI) : SERODIAGNOSTIC (IGG ET IGA) AVEC UN ANTIGENE DE PHASE I ET,3249,er_bio_f_nabm,1
TOXOPLASMOSE GROSSESSE : DEPISTAGE : SD INITIAL (2 ISOTYPES DIFFERENTS),1430,er_bio_f_nabm,2
BARBITURIQUES : RECHERCHE (SANG),1672,er_bio_f_nabm,1
DISTOMATOSE : SD DE DEPISTAGE PAR 2 TECHN.,4324,er_bio_f_nabm,1
TOXOPLASMOSE GROSSESSE : CULTURE ET INOCULATION,1436,er_bio_f_nabm,1
ANTIARYTHMIQUES NON NOMMEMENT INSCRITS A LA NABM,1678,er_bio_f_nabm,1
RECHERCHE D'UN INHIBITEUR ANTI-FACTEUR VIII OU ANTI-FACTEUR IX. IL EST RECOMMANDE D'EFFECTUER CETT,1018,er_bio_f_nabm,1
ACIDE HYALURONIQUE : DOSAGE,7308,er_bio_f_nabm,1
HEPATITE B (VHB):SD INFECTION RECENTE:AG HBS+AC ANTI-HBC IGM  PAR EIA,4710,er_bio_f_nabm,1
SYPHILIS : SERODIAGNOSTIC : TEST DE CONFIRMATION DES IGG PAR IMMUNO-EMPREINTE OU IMMUNO-BLOT IGG,1250,er_bio_f_nabm,1
EX MYCO ISOLE CHAMPIGNON EXOTIQUE : INOCUL A ANIMAL ET RETROCULTURE,257,er_bio_f_nabm,1
"CRYOCONSERVATION D'EMBRYON(S) PAR CYCLE  DE  CONGELATION, PAR ANNEE AU-DELA DE LA  PREMIERE ANNEE",64,er_bio_f_nabm,1
"THROMBOPENIES : TEST DIRECT  MISE EN EVIDENCE IG ASSOC. AUX PLAQ. (DIXON, ...)",1478,er_bio_f_nabm,1
MALADIE DES GRIFFES DU CHAT (BARTONELLOSES-INFECTIONS A BARTONELLA HENSELAE ET BARTONELLA QUINTANA),1252,er_bio_f_nabm,1
RECHERCHE IMMUNISATION ANTISPERMATOZOIDES (FEMME),79,er_bio_f_nabm,1
TRISOMIE 21 F TALE : DEPISTAGE COMBINE AU PREMIER  TRIMESTRE  DE LA GROSSESSE. L'EXAMEN SERA PRATIQU,4006,er_bio_f_nabm,1
TRANSFERRINE OU SIDEROPHYLLINE : DOSAGE,1819,er_bio_f_nabm,1
ACTE DE BIOLOGIE ERRONE,9999,er_bio_f_nabm,1
GRIPPE B : SD PAR RFC + ITERATIF,3732,er_bio_f_nabm,1
ARBOVIROSES (AUTRES QUE LES INFECTIONS PAR LES VIRUS DE LA DENGUE OU DU CHIKUNGUNYA) RECHERCHE DE,1253,er_bio_f_nabm,1
RECHERCHE OU TYPAGE D'UNE  DYSGLOBULINEMIE MONOCLONALE PAR  IMMUNO-ELECTROPHORESE OU IMMUNOFIXATION,1571,er_bio_f_nabm,1
UR. : OXALURIE,2010,er_bio_f_nabm,1
RESISTANCE GLOBULAIRE OSMOTIQUE,1112,er_bio_f_nabm,1
INFECTIONS A CAMPYLOBACTER :  SERODIAGNOSTIC + ITERATIF,3310,er_bio_f_nabm,1
EX MICROBIO DE LA SPHERE ORO-RHINO-PHARYNGEE,5209,er_bio_f_nabm,1
DIABETE INSULINO-DEPENDANT : ANTICORPS ANTI-IA2,1800,er_bio_f_nabm,1
RECHERCHE D'IGE SPECIFIQUES SANS  IDENTIFICATION INDIVIDUELLE : RECHERCHE  DE TROPHALLERGENES,1202,er_bio_f_nabm,1
CARYOTYPE CONSTITUTIONNEL POSTNATAL  SANGUIN,901,er_bio_f_nabm,1
RECHERCHE DE LA MUTATION C282Y DU GENE HFE1 CETTE RECHERCHE EST PRISE EN CHARGE PAR L'ASSURANCE MALA,8000,er_bio_f_nabm,1
DOSAGE DE L'AZOTE FECAL TOTAL. LE LABORATOIRE QUI EXECUTE L'ACTE DEVRA  SYSTEMATIQUEMENT ASSOCIER A,1624,er_bio_f_nabm,1
ACTES DE CYTOGENETIQUE MOLECULAIRE  CONSTITUTIONNELLE : HYBRIDATION SUR  CHROMOSOMES METAPHASIQUES,903,er_bio_f_nabm,1
INFECTIONS PULMONAIRES A CHLAMYDIA  PSITTACI : SERODIAGNOSTIC,1309,er_bio_f_nabm,1
EX. MICROBIO. : ISOL ET/OU IDENT LEVURE AUTRE QUE C ALBICANS OU ESPECE FILAM,252,er_bio_f_nabm,1
RETICULOCYTES (RC) : NUMERATION,1109,er_bio_f_nabm,2
INFECTION PAR LE VIRUS DU CHIKUNGUNYA RECHERCHE DES IGM ET DES IGG + EXAMEN ITERATIF PAR EIA INFE,3254,er_bio_f_nabm,1
EX. PARASITO. DES SELLES AVEC 2 METHODES DE CONCENTRATION,286,er_bio_f_nabm,1
T.S.H. + T4 LIBRE. EXAMEN DE DIAGNOSTIC D'UNE DYSTHYROIDIE DE  DEUXIEME INTENTION OU EXAMEN DE SUIVI,1211,er_bio_f_nabm,2
MYCOPLASMOSES RESPIRATOIRES : SERODIAGNOSTIC : IGG PAR EIA,1246,er_bio_f_nabm,1
INFECTION A EBV  : SD : AC EA IGA OU AC VCA IGA,1719,er_bio_f_nabm,1
ETUDE DE L'EJACULAT FRACTIONNE,74,er_bio_f_nabm,1
DOSAGE DE L'ACTIVITE COAGULANTE DU FACTEUR XI,180,er_bio_f_nabm,1
HEMOGLOBINE F : DOSAGE,1118,er_bio_f_nabm,1
ALDOLASE (SANG),1513,er_bio_f_nabm,1
MAI NSO:F. RHUMATOIDES GROUPE 1 : IG ANIMALES (WAALER-ROSE..),1451,er_bio_f_nabm,1
GRIPPES A ET B : SD CONTROLE D'IMMUNITE PAR SERONEUTRALISATION,1735,er_bio_f_nabm,1
RECHERCHE OU TITRAGE D'AUTOANTICORPS ANTITRANSGLUTAMINASE DE CLASSE IGG. L'ANTIGENE UTILISE DOIT ET,1829,er_bio_f_nabm,1
ALDOSTERONE OU TETRAHYDRO-ALDOSTERONE  URINAIRES,463,er_bio_f_nabm,1
TEMPS DE CEPHALINE + ACTIVATEUR (TCA) QUEL QUE SOIT LE NOMBRE DE REACTIFS UTILISES. RENDRE LE RESU,1127,er_bio_f_nabm,2
MYCOBACTERIES : IDENTIFICATION BIOCHIMIQUE DE MYCOBACTERIUM TUBERCULOSIS,243,er_bio_f_nabm,1
ARBOVIRUS : ISOLEMENT SUR ANIMAL,4210,er_bio_f_nabm,1
"SUPPLEMENT POUR ACTES EN URGENCE (SAMEDI APRES 12H, DIMANCHE, FERIE). LE NUMERO DE CODE DE CE SUPPL",9004,er_bio_f_nabm,2
DPN PROPREMENT DIT : ALPHA FOETO PROTEINE,4020,er_bio_f_nabm,1
"RICKETTSIOSES (RICKETTSIA CONORII,  RICKETTSIA TYPHI) : SERODIAGNOSTIC :  TITRAGE SUR AU MOINS 2 AN",1318,er_bio_f_nabm,1
"EX MICROBIO PLACENTA, LOOCHIES",5223,er_bio_f_nabm,1
CANDIDOSE SYSTEMIQUE :SD DE DEPISTAGE PAR 2 TECHNIQUES,4313,er_bio_f_nabm,1
DPN : C. INDEX - ET. FAMILIALE : ORIENTATION : DOSAGE METABOLITE,4002,er_bio_f_nabm,1
DREPANOCYTES : RECHERCHE,1111,er_bio_f_nabm,1
HEPATOPATHIES : AC ANTIMUSCLE LISSE : TITRAGE,1466,er_bio_f_nabm,1
LCR : DOSAGE D'UNE PROTEINE,1614,er_bio_f_nabm,1
BARBITURIQUES : RECHERCHE DANS UN AUTRE LIQUIDE BIOLOGIQUE QUE LE SANG,672,er_bio_f_nabm,1
FILARIOSE : SD DE CONFIRMATION PAR IELP,4334,er_bio_f_nabm,1
COMPLEMENT A LA COTATION MINIMALE DE  VALEUR B 12 (SANG). LA COTATION MINIMALE D'UN OU DE  PLUSIEU,9925,er_bio_f_nabm,1
VIRUS DE L'HEPATITE DELTA (VHD) : DETECTION QUANTITATIVE DE L'ARN VIRAL,4119,er_bio_f_nabm,1
HEPATITE E (VHE) : SD : AC ANTI-VHE PAR EIA,1743,er_bio_f_nabm,1
UR. : CREATININE (CREATININURIE),627,er_bio_f_nabm,2
C1 INHIBITEUR : DOSAGE,1810,er_bio_f_nabm,1
OREILLONS (V. OURLIEN) : INFECTION RECENTE : SD : IGG + IGM PAR EIA,1757,er_bio_f_nabm,1
VIRUS DE LA ROUGEOLE : RECHERCHE DIRECTE PAR EIA,4263,er_bio_f_nabm,1
TEMPS DE QUICK (OU TAUX DE PROTHROMBINE) EN L'ABSENCE DE TRAITEMENT PAR UN ANTIVITAMINE K RENDRE L,126,er_bio_f_nabm,2
TEMPS DE SAIGNEMENT (TS) : TEST D'IVY (INCISION OU 3 POINTS),171,er_bio_f_nabm,1
"BRUCELLOSES : SERODIAGNOSTIC (WRIGHT,  ROSE BENGALE)",1305,er_bio_f_nabm,1
CMI BACTERIE AEROBIE,5278,er_bio_f_nabm,1
RECHERCHE D'IGE SPECIFIQUES SANS IDENTIFICATION INDIVIDUELLE : RECHERCHE DE PNEUMALLERGENES,1201,er_bio_f_nabm,1
PARVOVIRUS B 19 : RECHERCHE DANS SERUM PAR ME,4253,er_bio_f_nabm,1
ARBOVIROSES : RECHERCHE AC PAR IHA + ITERATIF,3706,er_bio_f_nabm,1
"DETECTION DE L'ARN DES VIRUS DE LA  DENGUE ET DU CHIKUNGUNYA PAR RT PCR   PRELEVEMENT, JUSQU'A J7",5261,er_bio_f_nabm,1
HERPES SIMPLEX (VHS) : SD : AC IGM ANTI  VHS 1 ET 2 PAR EIA,1746,er_bio_f_nabm,1
RECHERCHE AC FIXES SUR LES SPERMATOZOIDES (HOMME),76,er_bio_f_nabm,1
MALADIE DES GRIFFES DU CHAT (BARTONELLOSES-INFECTIONS A BARTONELLA HENSELAE ET BARTONELLA QUINTANA),3252,er_bio_f_nabm,1
"DETECTION DE L'ARN DES VIRUS DE LA DENGUE PAR RT PCR PRELEVEMENT, JUSQU'A J7 APRES LE DEBUT DES",5260,er_bio_f_nabm,1
HERPETOVIRIDAE : RECHERCHE PAR ME(URGENCE),4224,er_bio_f_nabm,1
DETECTION DE L'ANTIGENE NS1 DE LA  DENGUE   PAR EIA OU PAR ICT  LA PRISE EN CHARGE DE L'ACTE 427,4273,er_bio_f_nabm,1
INFECTION A HTLV (I ET II) : SD DE CONFIRMATION PAR IMMUNOTRANSFERT,1755,er_bio_f_nabm,1
HERPES SIMPLEX (VHS) : SD : AC IGG ANTI VHS 1 + 2 PAR IFI + ITERATIF,3745,er_bio_f_nabm,1
VIRUS GRIPPAUX (A ET B) : RECHERCHE DIRECTE PAR IF,4240,er_bio_f_nabm,1
INF. A PARVOVIRUS B 19 ANCIENNE : SD : IGG OU IG TOTALES PAR IFI,1765,er_bio_f_nabm,1
ANTIGENE PROSTATIQUE SPECIFIQUE LIBRE (PSA LIBRE) AVEC RAPPORT  PSA LIBRE / PSA TOTAL : DOSAGE,7320,er_bio_f_nabm,2
EX. EXTEMPORANE AVEC CONTROLE HISTOPATH. ULTERIEUR,12,er_bio_f_nabm,1
ROUGEOLE : SD INFECTION RECENTE : IGG + IGM PAR IFI,1769,er_bio_f_nabm,1
T.S.H. EXAMEN DE DIAGNOSTIC D'UNE DYSTHYROIDIE DE  PREMIERE  INTENTION OU EXAMEN DE SUIVI THERAPEUTI,1208,er_bio_f_nabm,3
CALCIUM.,578,er_bio_f_nabm,3
PARAINFLUENZA (PARAMYXOVIRUS) : SD PAR IHA,1760,er_bio_f_nabm,1
PRELEVEMENT OCULAIRE CONJONCTIVITE BACTERIENNE (INFECTION SUPERFICIELLE).  L'EXAMEN COMPREND OUTR,5213,er_bio_f_nabm,1
INSULINE,7422,er_bio_f_nabm,1
EXAMEN CYTOBACTERIOLOGIQUE DES URINES  (ECBU)  CET EXAMEN DOIT ETRE PRATIQUE SUR URINES FRAICHEME,5201,er_bio_f_nabm,3
LIQUIDES DE SEROSITE : DOSAGE D'UNE  PROTEINE,1633,er_bio_f_nabm,1
CORTISOL LIBRE URINAIRE,476,er_bio_f_nabm,1
SYSTEME NERVEUX : AUTOAC ANTIRECEPTEURS DE L'ACETYLCHOLINE,1492,er_bio_f_nabm,1
"DPN : ET. FAMILIALE : MUCOVISCIDOSE : 2 MUTATIONS, DONT DELTA F 508",4040,er_bio_f_nabm,1
SPIROCHETES : RECH. PAR EX. DIRECT (COLOR. OU IF),246,er_bio_f_nabm,1
"FERRITINE COTATION NON CUMULABLE AVEC CELLE DE L'ACTE 1822 EN CAS DE SUSPICION DE CARENCE MARTIALE,",1213,er_bio_f_nabm,3
GROUPAGE PLAQUETTAIRE (PLA),160,er_bio_f_nabm,1
SPERMOGRAMME ET SPERMOCYTOGRAMME,70,er_bio_f_nabm,1
GRIPPE B : SD PAR IHA + ITERATIF,3734,er_bio_f_nabm,1
HEPATITE B (VHB) : SD : AC ANTIHBC TOTAUX PAR EIA,351,er_bio_f_nabm,2
HEPATITE B (VHB) : SD : AG HBE PAR EIA,353,er_bio_f_nabm,1
INFECTION A CMV  : IMMUNITE ANCIENNE  SD : IGG PAR IFI,1786,er_bio_f_nabm,1
DPN PROPREMENT DIT : MYOPATHIES DUCHENNE ET BECKER,4053,er_bio_f_nabm,1
INFECTIONS A HELICOBACTER PYLORI :  SERODIAGNOSTIC,1311,er_bio_f_nabm,1
LCR : GLUCOSE (GLUCORACHIE),603,er_bio_f_nabm,1
DPN : RECHERCHE DE L'ADN TOXOPLASMIQUE,4063,er_bio_f_nabm,1
TROPONINE - DETERMINATION QUANTITATIVE (SANG),7335,er_bio_f_nabm,2
"LYMPHOCYTES HELPERS/SUPPRESSEURS (CD4, CD8, CD3 ...)",1122,er_bio_f_nabm,1
MYCOPLASMOSES RESPIRATOIRES : SERODIAGNOSTIC : IGM PAR EIA,1247,er_bio_f_nabm,1
GENOME (ADN) : MYCOBACTERIES HYBRID MOLEC DANS TISSUS ET LCR,4102,er_bio_f_nabm,1
DETERMINATION PRENATALE DU SEXE F TAL A PARTIR DU SANG MATERNEL. LES INDICATIONS DE CET EXAMEN SONT,4084,er_bio_f_nabm,1
ASPERGILLOSE : RECHERCHE ANTIGENES SOLUBLES,4311,er_bio_f_nabm,1
DPN : ET. FAMILIALE : MUCOVISCIDOSE : PLUS DE 2 MUTATIONS,4041,er_bio_f_nabm,1
MISE EN EVIDENCE D'UNE CONTAMINATION URINAIRE. CET ACTE COMPREND OBLIGATOIREMENT L'EXAMEN MICROSCO,1504,er_bio_f_nabm,1
HEPATOPATHIES : AUTOAC ANTITISSUS ET ANTINUCLEAIRES,1465,er_bio_f_nabm,1
CHLAMYDIA : RECHERCHE PAR CULTURE,5255,er_bio_f_nabm,1
THEOPHYLLINE (SANG),335,er_bio_f_nabm,1
POTASSIUM.,1608,er_bio_f_nabm,2
C-PEPTIDE DANS LE SANG,1137,er_bio_f_nabm,1
RECEPTEUR SOLUBLE DE LA TRANSFERRINE (RSTF) COTATION NON CUMULABLE AVEC CELLE DE L'ACTE 1213,1822,er_bio_f_nabm,1
ROUGEOLE : SD CONTROLE D'IMMUNITE : IGG OU IG TOTALES PAR EIA,1770,er_bio_f_nabm,1
RAGE : SD CONTROLE D'IMMUNITE : IGG PAR EIA,1767,er_bio_f_nabm,1
HISTOPATH. PIECE OPER. INTERESSANT UN ORGANE,6,er_bio_f_nabm,1
EPREUVE D'ELUTION D'ANTICORPS A PARTIR DE GR,1155,er_bio_f_nabm,1
"TEST SOLUBILITE DE L'HEMOGLOBINE (ITANO , FALCIFORMATION)",1115,er_bio_f_nabm,1
DOSAGE DE L'ACTIVITE COAGULANTE DU FACTEUR II (PROTHROMBINE),1014,er_bio_f_nabm,1
"EX MICROBIO PROD ASPIRATION BRONCHIQUE, BBP ET LBA______________________________",5230,er_bio_f_nabm,1
"DOSAGE IMMUNOLOGIQUE DE LA PROTEINE C, EN VUE DU DIAGNOSTIC D'UN DEFICIT. LE DOSAGE SERA EFFECTUE",1027,er_bio_f_nabm,1
CNO : IDENTIFICATION VIRALE PAR 1 A 2 SERUMS,4202,er_bio_f_nabm,1
HYPODERMOSE : SD DE CONFIRMATION PAR IELP,4339,er_bio_f_nabm,1
INFECTION A VRS : SD : DEPISTAGE AC PAR RFC (CHEZ ADULTE),3781,er_bio_f_nabm,1
ANTICORPS ANTIGRANULOCYTAIRES : DEPISTAGE,164,er_bio_f_nabm,1
SCHISTOSOMIASE : SD DE DEPISTAGE,4355,er_bio_f_nabm,1
DPN PROPREMENT DIT : HEMOPHILIES,4081,er_bio_f_nabm,1
TRICHINOSE : SD DE DEPISTAGE,4358,er_bio_f_nabm,1
DPN : C. INDEX - ET. FAMILIALE : ENZ SUBSTRAT NON ISOTOPIQUE (TECHN. COMPLEXE),4012,er_bio_f_nabm,1
COMPLEMENT A LA COTATION MINIMALE DE  VALEUR B 3 (SANG). LA COTATION MINIMALE D'UN OU DE  PLUSIEUR,9918,er_bio_f_nabm,1
ACIDE VALPROIQUE.,340,er_bio_f_nabm,1
CANDIDOSE : SD DE CONFIRMATION PAR COES,4314,er_bio_f_nabm,1
PRIMIDONE (MYSOLINE) + PHENOBARBITAL (GARDENAL),1670,er_bio_f_nabm,1
MAI NSO : AC ANTI-ADN NATIF PAR METH. MARQUEUR SUR SANG,1455,er_bio_f_nabm,1
ALCOOL (ETHYLIQUE OU METHYLIQUE),534,er_bio_f_nabm,1
DPN : C. INDEX - ET. FAMILIALE : ORIENTATION : PROFILS METABOLIQUES,4001,er_bio_f_nabm,1
"DETECTION DE L'ARN DU VIRUS ZIKA PAR  RT-PCR SUR     PRELEVEMENT SANGUIN. PRELEVEMENT, JUSQU'A J7 AP",5263,er_bio_f_nabm,1
EX MICROBIO PREL PLURI-ORIFICIELS NOUVEAU-NE,5225,er_bio_f_nabm,1
CONGELATION D'EMBRYONS ( PAR CYCLE),54,er_bio_f_nabm,1
"DOSAGE IMMUNOLOGIQUE D'UNE PROTEINE DE LA COAGULATION (FACTEUR I, FACTEUR II, FACTEUR V, FACTEUR VI",1028,er_bio_f_nabm,1
ANTIDEPRESSEURS : DOSAGE SPECIFIQUE (SANG),1665,er_bio_f_nabm,1
HERPES SIMPLEX (VHS) : SD : AC IGM ANTI VHS 1 + 2 PAR IFI + ITERATIF,3747,er_bio_f_nabm,1
ROTAVIRUS : RECHERCHE PAR ME,4268,er_bio_f_nabm,1
ROTAVIRUS : RECHERCHE DIRECTE PAR AGG,4266,er_bio_f_nabm,1
"CRYOCONSERVATION DE SPERMATOZOIDES  PRELEVES  CHIRURGICALEMENT EN VUE D'UNE ICSI PAR  PATIENT, PAR",68,er_bio_f_nabm,1
COMPLEMENT A LA COTATION MINIMALE DE  VALEUR B 10 (SANG). LA COTATION MINIMALE D'UN OU DE  PLUSIEU,9910,er_bio_f_nabm,1
"VIRUS PARAINFLUENZAE (I, II, III, IV) : RECHERCHE DIRECTE PAR EIA",4244,er_bio_f_nabm,1
ALBUMINE,1806,er_bio_f_nabm,2
CAFEINE (EN PEDIATRIE),1658,er_bio_f_nabm,1
CNO : IDENTIFICATION VIRALE PAR + DE 7 SERUMS,4204,er_bio_f_nabm,1
RECHERCHE DE SANG (HEMATIES ET/OU HEMOGLOBINE HUMAINE). TOUTE PRESCRIPTION EXPLICITE DE RECHERCHE,1629,er_bio_f_nabm,1
"SPERME  OUTRE LES RECHERCHES INCLUSES DANS LA COTATION FORFAITAIRE, L'EXAMEN COMPREND LA NUMERATI",5205,er_bio_f_nabm,1
MYCOBACTERIES : CULT. D'ISOL SUR MILIEU SOLIDE A PARTIR D'UN PRODUIT SOLIDE,242,er_bio_f_nabm,1
"TRANSAMINASES (ALAT ET ASAT, TGP ET TGO) CET ACTE     N'EST PAS INDIQUE DANS LA MALADIE CORONARIENNE",522,er_bio_f_nabm,3
DOSAGE MICROBIO D'UN ANTIBIOTIQUE CHEZ LE MALADE,5293,er_bio_f_nabm,1
RECHERCHE D'ANTICORPS IRREGULIERS (RAI) VIS-A-VIS DES ANTIGENES DE GROUPES SANGUINS ERYTHROCYTAIRES,1141,er_bio_f_nabm,2
RECHERCHE DE L'ALLELE HLA-B*5701 PAR  UNE TECHNIQUE DE BIOLOGIE MOLECULAIRE. CET ACTE EST INDIQUE C,1691,er_bio_f_nabm,1
"CYTOPATH. SUR PONCTION GANGLION, TUMEUR, ORGANE",15,er_bio_f_nabm,1
DPN : TOXOPLASME : CULTURE CELLULAIRE,4060,er_bio_f_nabm,1
MAL. POUMON ELEVEUR D'OISEAUX : SD DE CONFIRMATION PAR IELP,4348,er_bio_f_nabm,1
ASTROVIRUS : RECHERCHE DIRECTE PAR EIA,4218,er_bio_f_nabm,1
GROUPAGES TISSULAIRES : PHENOTYPE HLA  CLASSE I DANS LE CADRE DES MALADIES  AUTO-IMMUNES NECESSITAN,1180,er_bio_f_nabm,1
RECH. HEMOGLOBINURIE NOCTURNE PAROXYSTIQUE,1119,er_bio_f_nabm,1
CREATINE PHOSPHOKINASE MB. LA COTATION DE L'ACTE 1526 N'EST PAS CUMULABLE AVEC CELLE DE LA TROPONIN,1526,er_bio_f_nabm,1
FIEVRE Q (COXIELLA BURNETTI) : SERODIAGNOSTIC : TITRAGE AVEC UN ANTIGENE DE PHASE II (IFI),1248,er_bio_f_nabm,1
DIABETE INSULINODEPENDANT : TITRAGE DES  ANTICORPS ANTICELLULES D'ILOTS DE LANGERHANS DU PANCREAS P,1481,er_bio_f_nabm,1
"UR : PROTEINURIE, RECHERCHE ET DOSAGE",2004,er_bio_f_nabm,2
CICLOSPORINE A (SANDIMMUN) (SANG),1054,er_bio_f_nabm,1
CREATINE PHOSPHOKINASE (CPK)  LA COTATION DE L'ACTE 1520 N'EST  PAS  CUMULABLE AVEC CELLE DE LA TROP,1520,er_bio_f_nabm,2
BETA 2 MICROGLOBULINE  DANS LE SANG :  DOSAGE,324,er_bio_f_nabm,1
ARBOVIROSES : RECHERCHE AC PAR IHA,1706,er_bio_f_nabm,1
INFECTION A ARENAVIRUS : SD PAR IFI,1710,er_bio_f_nabm,1
ANTIGENE CARCINO-EMBRYONNAIRE (ACE) : DOSAGE,7327,er_bio_f_nabm,2
INF. A PARVOVIRUS B 19 RECENTE : SD : IGG + IGM PAR IFI,1762,er_bio_f_nabm,1
"ECHINOCOCCOSES  (KYSTE HYDATIQUE, ...) : SD DE CONFIRMATION PAR IELP",4330,er_bio_f_nabm,1
CATECHOLAMINES TOTALES (OU  METANEPHRINES OU ACIDE HOMOVANILIQUE)  URINAIRES,468,er_bio_f_nabm,1
LCR : DYSGLOBULINORACHIE : ELECTROPHORESE ET TYPAGE,614,er_bio_f_nabm,1
CLAIRANCE (RENALE) DE LA CREATININE  AVEC DOSAGES SANGUIN ET URINAIRE DE LA  CREATININE,407,er_bio_f_nabm,1
IGA,1814,er_bio_f_nabm,1
SEPARATION CHROMATOGRAPHIQUE DES FORMES  MOLECULAIRES DE LA PROLACTINE (MONOMERE  + BIG-BIG),884,er_bio_f_nabm,1
BENZENE,537,er_bio_f_nabm,1
INFECTION A VIH 1 ET 2 : 0392 RECHERCHE ET TITRAGE DE L'ANTIGENE P24 DU VIH 1 LA COTATION DE L'ACT,392,er_bio_f_nabm,1
ANTIGENE TISSULAIRE POLYPEPTIDIQUE (TPA) : DOSAGE,813,er_bio_f_nabm,1
DOSAGE DU FACTEUR XIII (FACTEUR DE STABILISATION DE LA FIBRINE),173,er_bio_f_nabm,1
ARENAVIRUS : ISOLEMENT SUR SOURICEAUX,4215,er_bio_f_nabm,1
HISTOPATH. BIOPSIES UNIQUES OU MULTIPLES NON INDIVIDUALISEES,4,er_bio_f_nabm,1
LEISHMANIOSE : SUIVI DU SD DE DEPISTAGE PAR 1 TECHN. + ITERATIF,6344,er_bio_f_nabm,1
ECHOVIRUS : CULTURES CELLULAIRES,4239,er_bio_f_nabm,1
IGA + IGG + IGM. L'EXAMEN 1385 PEUT ETRE EFFECTUE ET COTE A L'INITIATIVE DU DIRECTEUR DE LABORATOI,1385,er_bio_f_nabm,1
SCHISTOSOMIASE : SD DE CONFIRMATION PAR IE,4357,er_bio_f_nabm,1
L.H. DANS LE SANG,472,er_bio_f_nabm,2
VIRUS OURLIEN :(OREILLONS) : CULTURES ORIENTEES ET IDENTIFICATION,4252,er_bio_f_nabm,1
TOXOPLASMOSE GROSSESSE : DEPISTAGE : CONTROLE DU SD INITIAL SUR AUTRE PREL.,1431,er_bio_f_nabm,1
PENETRATION DU MUCUS CERVICAL : TEST CROISE,78,er_bio_f_nabm,1
"EX MICROBIO PREL DIVERS : MECHES (PAR SITE), REDON (PAR SITE), STERILET",5222,er_bio_f_nabm,1
DPN : TOXOPLASME : INOCULATION A SOURIS,4061,er_bio_f_nabm,1
DPN : C. INDEX - ET. FAMILIALE : ETUDE D'UN METABOLISME IN VITRO,4010,er_bio_f_nabm,1
DPN : C. INDEX - ET. FAMILIALE : ENZ : SUBSTRAT NON ISOTOPIQUE - 1 ACTIVITE,4011,er_bio_f_nabm,1
MYCOPLASMOSES RESPIRATOIRES :  SERODIAGNOSTIC AVEC ANTICORPS TOTAUX  PAR RFC +AGG + ITERATIF,3313,er_bio_f_nabm,1
POUVOIR BACTERICIDE DES ANTIBIOTIQUES ET ASSOC PAR ANTIBIOTIQUE,277,er_bio_f_nabm,1
ANTIGENE CA 125 : DOSAGE,7325,er_bio_f_nabm,1
VIRUS DE L'HERPES SIMPLEX (VHS) : CULTURES ORIENTEES ET IDENTIFICATION,4230,er_bio_f_nabm,1
RECHERCHE ET IDENTIFICATION D'UN ANTICOAGULANT DE TYPE LUPIQUE (OU ANTIPHOSPHOLIPIDE PAR UNE TECHNI,1020,er_bio_f_nabm,1
HERPES 6 (VHH6) : SD : AC IGG PAR EIA,1752,er_bio_f_nabm,1
SEROLOGIE DE CHLAMYDIA TRACHOMATIS (IGG CHEZ L'ADULTE OU IGM CHEZ LE NOUVEAU NE OU LE NOURRISSON).,1307,er_bio_f_nabm,1
IGM,1816,er_bio_f_nabm,1
SANG : IONOGRAMME (SODIUM + POTASSIUM +   EVENTUELLEMENT CHLORE),1609,er_bio_f_nabm,3
PAS D'IN,9106,er_bio_f_nabm,3
HEPATITE B (VHB):SD CONTROLE APRES VACCINATION:AC ANTI-HBS PAR  EIA,4714,er_bio_f_nabm,1
SELLES : AZOTE FECAL TOTAL ET SOLUBLE,1625,er_bio_f_nabm,1
EX. MYCO ISOLE : IDENTIF DE GENRE LEVURES ET CHAMPIGNONS FILAMENTEUX,253,er_bio_f_nabm,1
ENOLASE (NSE),814,er_bio_f_nabm,1
PARAMETRES TISSULAIRES EN CANCEROLOGIE : DOSAGES QUANTITATIFS A PARTIR D'UNE EXTRACTION SUBCELLULAI,1825,er_bio_f_nabm,1
DOSAGE D'AMMONIAQUE/DERIVES AMINES.,1502,er_bio_f_nabm,1
ISOL. ET/OU IDENTIF. D'UNE BACTERIE PAR POUVOIR PATHOGENE (ANIMAL),236,er_bio_f_nabm,1
TEST AU XYLOSE COMPRENANT UN MINIMUM DE DEUX DOSAGES SANGUINS. LE COMPTE RENDU DEVRA PRECISER L'EX,1414,er_bio_f_nabm,1
DPN : ET. FAMILIALE : MYOPATHIES DUCHENNE ET BECKER,4052,er_bio_f_nabm,1
ANTIDEPRESSEURS TRICYCLIQUES : RECH DANS UN AUTRE LIQ QUE SANG,663,er_bio_f_nabm,1
CORPS DE HEINZ : RECHERCHE,1110,er_bio_f_nabm,1
FORFAIT DE PRISE EN CHARGE PRE-ANALYTIQUE DU PATIENT.  CE FORFAIT COMPREND : - LE RECUEIL DES DONNEE,9005,er_bio_f_nabm,4
CERULEOPLASMINE : DOSAGE,1809,er_bio_f_nabm,1
ANTIEPILEPTIQUE NON NOMMEMENT INSCRIT A LA NABM (SANG),1671,er_bio_f_nabm,1
HEMATOZOAIRES : RECHERCHE SUR FROTTIS ET EN GOUTTE EPAISSE,1125,er_bio_f_nabm,1
MAJORATION PROVISOIRE QUI S'AJOUTE A LA COTATION DE L'ACTE 0008 UNIQUEMENT POUR LES DIAGNOSTICS HIS,22,er_bio_f_nabm,1
EX. PARASITO. SELLES EMISES AU LABO (0259 + 0286),288,er_bio_f_nabm,1
THYROIDE  : AUTOAC ANTITHYROGLOBULINE PAR METH MARQUEUR,1484,er_bio_f_nabm,1
ERYTHROPOIETINE,763,er_bio_f_nabm,1
EX MICROBIO HEMOCULTURE QUANTITATIVE,5221,er_bio_f_nabm,1
VIRUS DE L'HERPES 6 (VHH6) OU DE L'HERPES 7 (VHH7):CULTURES SUR LYMPHOCYTES,4270,er_bio_f_nabm,1
DPN : BETA THALASSEMIE MAJEURE (2 MUTATIONS),4055,er_bio_f_nabm,1
MAI NSO : AC ANTI-ADN NATIF PAR IFI SUR SANG,1454,er_bio_f_nabm,1
TRIIODOTHYRONINE LIBRE (T3 LIBRE OU FT3) (SANG),1206,er_bio_f_nabm,1
FILARIOSE : SD DE DEPISTAGE PAR 2 TECHN.,4332,er_bio_f_nabm,1
HEMATOCRITE (HTE),2108,er_bio_f_nabm,1
CARYOTYPE SUR SANG PERIPHERIQUE OU PRELEVEMENT DE MOELLE OSSEUSE OU TOUT TISSU PRESUME ENVAHI PAR D,906,er_bio_f_nabm,1
IGE SPECIFIQUES IMPLIQUANT DES ALLERGENES AUTRES QUE LES PNEUMALLERGENES ET TROPHALLERGENES : VENI,967,er_bio_f_nabm,1
ALUMINIUM (AL) (SANG),1679,er_bio_f_nabm,1
SUPPLEMENT POUR ACTES EN URGENCE NUIT. LES ACTES DE NUIT SONT CEUX EFFECTUES ENTRE VINGT HEURES ET,9001,er_bio_f_nabm,2
"IONOGRAMME FECAL (COMPORTANT AU MINIMUM LES DOSAGES DE CHLORE, DE SODIUM ET DE POTASSIUM AVEC CALCU",1626,er_bio_f_nabm,1
"PHENOTYPES RH (C, C, E, E)  ET KELL (K)",1145,er_bio_f_nabm,2
INFECTION A CMV RECENTE  SD :  IGG + IGM PAR EIA + ITERATIF,3713,er_bio_f_nabm,1
ALVEOLITES ALLERGIQUES EXOGENES : SD DE DEPISTAGE,4351,er_bio_f_nabm,1
"IMMUNOGLOBULINES IGG1, IGG2, IGG3, IGG4 : 2 PARAMETRES : DOSAGE",1393,er_bio_f_nabm,1
DPN PROPREMENT DIT : X FRAGILE,4051,er_bio_f_nabm,1
ARBOVIROSES (AUTRES QUE LES INFECTIONS  PAR LES VIRUS DE LA DENGUE OU DU  CHIKUNGUNYA) RECHERCHE D,3253,er_bio_f_nabm,1
SYPHILIS : SERODIAGNOSTIC : TITRAGES,1327,er_bio_f_nabm,1
CANDIDOSE : SD DE CONFIRMATION PAR IELP,4315,er_bio_f_nabm,1
"RECHERCHE ET IDENTIFICATION DE LAXATIFS DANS LES SELLES, COMPRENANT AU MINIMUM CELLE DES DERIVES AN",1683,er_bio_f_nabm,1
FORFAIT DE SECURITE POUR LE TRAITEMENT D'UN   ECHANTILLON SANGUIN DANS LES CONDITIONS   PREVUES PAR,9105,er_bio_f_nabm,4
DISTOMATOSE : SD DE CONFIRMATION PAR COES,4325,er_bio_f_nabm,1
EX. PARASITO. DES SELLES AVEC 1 METHODE   DE CONCENTRATION,287,er_bio_f_nabm,1
COMPLEMENT A LA COTATION MINIMALE DE VALEUR B 2 (SANG). LA COTATION MINIMALE D'UN OU DE PLUSIEURS,9917,er_bio_f_nabm,1
"MYCOBACTERIES : ISOLEMENT RAPIDE A PARTIR ORGANE, SANG",1242,er_bio_f_nabm,1
DPN : C. INDEX - ET. FAMILIALE : ENZ (SUBSTRAT ISOTOPIQUE),4013,er_bio_f_nabm,1
MAL. POUMON ELEVEUR D'OISEAUX : SD DE DEPISTAGE,4347,er_bio_f_nabm,1
YERSINIOSES : SERODIAGNOSTIC AVEC TROIS  ANTIGENES ET PLUS (AGG OU RFC),1335,er_bio_f_nabm,1
MYCOPLASMOSES RESPIRATOIRES : SERODIAGNOSTIC : IGM PAR EIA + ITERATIF,3247,er_bio_f_nabm,1
DPN : C. INDEX - ET. FAMILIALE : ORIENT : IMMUNOCHIMIE PROT OU METAB SUR CELL,4003,er_bio_f_nabm,1
CATECHOLAMINES PLASMATIQUES PAR  CHROMATOGRAPHIE LIQUIDE HAUTE PRESSION.  AU MOINS DEUX DES TROIS D,478,er_bio_f_nabm,1
RAI : TITRAGE D'UN ANTICORPS IDENTIFIE,1149,er_bio_f_nabm,1
"PROTEINOGRAMME (ELECTROPHORESE) AVEC DETERMINATION DES POURCENTAGES, DOSAGE DES PROTEINES TOTALES,",570,er_bio_f_nabm,2
DIAGNOSTIC  HEMOPATHIE MALIGNE (MOELLE OU SANG),1105,er_bio_f_nabm,1
IGE SPECIFIQUES IMPLIQUANT DES  ALLERGENES AUTRES QUE LES  PNEUMALLERGENES ET TROPHALLERGENES :  L,966,er_bio_f_nabm,1
PARATHORMONE (1-84 OU BIOACTIVE),983,er_bio_f_nabm,1
HERPES SIMPLEX (VHS) : SD : AC IGG ANTI  VHS 1 ET 2 PAR EIA,1744,er_bio_f_nabm,1
CALICIVIRUS : RECHERCHE DIRECTE PAR EIA,4221,er_bio_f_nabm,1
DOSAGE IMMUNOLOGIQUE DE L'ANTITHROMBINE (INHIBITEUR PHYSIOLOGIQUE DE LA COAGULATION) EN VUE DU DIAG,188,er_bio_f_nabm,1
ARENAVIRUS : RECHERCHE DIRECTE PAR EIA,4213,er_bio_f_nabm,1
MAI NSO : AUTOAC ANTIKERATINE : TITRAGE,1464,er_bio_f_nabm,1
"HEPATOPATHIES : AC ANTIRETICULUM ENDOPLASMIQUE (LKM, ANTICYTOSOL)",1472,er_bio_f_nabm,1
TEST POST-COITAL (TPC) OU TEST DE HUHNER,71,er_bio_f_nabm,1
OXYDE DE CARBONE DU SANG (CO),1680,er_bio_f_nabm,1
CORTICOTROPINE (ACTH),7420,er_bio_f_nabm,1
ALPHA 1 ANTITRYPSINE (ALPHA 1 PROTINEASE INHIBITOR; ALPHA 1 PI) : DOSAGE,1807,er_bio_f_nabm,1
CARYOTYPE CONSTITUTIONNEL POSTNATAL SUR FIBROBLASTES,902,er_bio_f_nabm,1
GASTRINE,764,er_bio_f_nabm,1
ALVEOLITES ALLERGIQUES EXOGENES : SUIVI DU SD DE DEPISTAGE + ITERATIF,6351,er_bio_f_nabm,1
COMPLEMENT A LA COTATION MINIMALE DE  VALEUR B 8 (SANG). LA COTATION MINIMALE D'UN OU DE  PLUSIEUR,9922,er_bio_f_nabm,1
"CARYOTYPE CONSTITUTIONNEL PRENATAL : TECHNIQUES AVEC CULTURE (LIQUIDE AMNIOTIQUE, CULTURES DE VILLO",41,er_bio_f_nabm,1
DETECTION QUALITATIVE ET QUANTITATIVE DE L'ARN VIH-1 DANS LE PLASMA SEMINAL ET/OU LA FRACTION FINAL,4128,er_bio_f_nabm,1
CMI CHAMPIGNON FILAMENTEUX DE POUSSE LENTE,281,er_bio_f_nabm,1
ALPHA 2 MACROGLOBULINE : DOSAGE,1805,er_bio_f_nabm,1
ACTIVITE ANTIBIOTIQUE GLOBALE D'UN LIQUIDE BIOLOGIQUE,5294,er_bio_f_nabm,1
DOSAGE D'ANALGESIQUES OU DE STUPEFIANTS NON NOMMEMENT INSCRITS A LA NABM DANS UN LIQUIDE BIOLOGIQUE,659,er_bio_f_nabm,1
COMPLEMENT A LA COTATION MINIMALE DE  VALEUR B 11 (SANG). LA COTATION MINIMALE D'UN OU DE  PLUSIEU,9924,er_bio_f_nabm,1
"CONGELATION, EN VUE D'UNE  AUTOCONSERVATION  POUR ICSI, DE SPERMATOZOIDES PRELEVES  CHIRURGICALEME",67,er_bio_f_nabm,1
"IMMUNOGLOBULINES IGG1, IGG2, IGG3, IGG4 : 1 PARAMETRE : DOSAGE",1392,er_bio_f_nabm,1
CORONAVIRUS : RECHERCHE DIRECTE PAR IF,4222,er_bio_f_nabm,1
INFECTIONS PULMONAIRES A CHLAMYDIA  PNEUMONIAE : SERODIAGNOSTIC + ITERATIF,3308,er_bio_f_nabm,1
ASPERGILLOSE : SUIVI DU SD DE DEPISTAGE + ITERATIF,6307,er_bio_f_nabm,1
HEPATITE DELTA (VHD) : SD : AC IGM PAR EIA,1741,er_bio_f_nabm,1
DOSAGE DE L'ACTIVITE COAGULANTE DU FACTEUR X (FACTEUR   STUART) LA  COTATION DE L'ACTE 1032 N'EST PA,1017,er_bio_f_nabm,1
ASPERGILLOSE : SD DE CONFIRMATION PAR IE,4310,er_bio_f_nabm,1
DOSAGE DE L'ALPHA 1 ANTITRYPSINE  FECALE. LE LABORATOIRE QUI EXECUTE L'ACTE DEVRA SYSTEMATIQUEMENT,1416,er_bio_f_nabm,1
UR. : ACIDES AMINES TOTAUX CARACTERISATION PAR CHROMATOGRAPHIE,991,er_bio_f_nabm,1
ARENAVIRUS : CULTURES ORIENTEES ET IDENTIFICATION,4214,er_bio_f_nabm,1
CRYPTOCOCCOSE : ANTIGENES SOLUBLES : TITRAGE,4319,er_bio_f_nabm,1
CRYPTOSPORIDIUM : RECH. SUR SELLES FRAICHEMENT EMISES,290,er_bio_f_nabm,1
ANTITUMORAUX (AUTRES QUE METHOTREXATE) (SANG),1657,er_bio_f_nabm,1
TROPHALLERGENES : IDENTIFICATION AVEC  DOSAGE QUANTITATIF DES IGE SPECIFIQUES  VIS-A-VIS D'ALLERGEN,1205,er_bio_f_nabm,1
MYOGLOBINE (DOSAGE PAR METHODE IMMUNO-CHIMIQUE OU PAR AUTRE METHODE SPECIFIQUE) LE DOSAGE DE LA MY,1575,er_bio_f_nabm,1
COQUELUCHE : DIAGNOSTIC DES ANTICORPS ANTITOXINES DE BORDETELLA PERTUSSIS PAR TECHNIQUE D'IMMUNO-EM,1339,er_bio_f_nabm,1
PREPARATION DES SPERMATOZOIDES EN VUE  D'INSEMINATION ARTIFICIELLE  INTRA-UTERINE  (IIU),59,er_bio_f_nabm,1
MYCOBACTERIES : CULT. D'ISOL SUR MILIEU SOLIDE (SAUF A PARTIR PRODUIT SOLIDE),241,er_bio_f_nabm,1
DPN : DREPANOCYTOSE,4054,er_bio_f_nabm,1
ASPERGILLOSE : SD DE DEPISTAGE,4307,er_bio_f_nabm,1
MAI : AUTOAC ANTISUBSTANCE INTERCELL. D'EPITH. MALPIGHIEN PAR IFI,1494,er_bio_f_nabm,1
IDENTIF. D'UNE TOXINE BACTERIENNE : PAR POUVOIR PATHOGENE (ANIMAL),238,er_bio_f_nabm,1
TOXOPLASMOSE CAS GENERAL : SUIVI : SD DE SURVEILLANCE (2 ISOTYPES DIFFERENTS),1422,er_bio_f_nabm,1
HEPATITE B (VHB):SD CONTROLE AVANT VACCINATION:AC ANTI HBS+AC  ANTI HBC EIA,4713,er_bio_f_nabm,1
INFECTION A HTLV (I ET II) : SD DE DEPISTAGE PAR AGGLUTINATION,4716,er_bio_f_nabm,1
MALADIE DES GRIFFES DU CHAT  (BARTONELLOSES-INFECTIONS A BARTONELLA  HENSELAE ET BARTONELLA QUINTAN,1331,er_bio_f_nabm,1
PARACETAMOL : DOSAGE,1661,er_bio_f_nabm,1
SPIROCHETES : ISOLEMENT DES LEPTOSPIRES PAR CULTURE,247,er_bio_f_nabm,1
VITAMINE B 12,1374,er_bio_f_nabm,2
INFECTION A EBV ANCIENNE : SD : AC VCA IGG ET AC EBNA PAR EIA,1716,er_bio_f_nabm,1
VARICELLE-ZONA : DIAGNOSTIC D'UNE  INFECTION RECENTE OU D'UNE RECURRENCE :  IGG ET IGM PAR EIA + IT,3777,er_bio_f_nabm,1
DPN PROPREMENT DIT : MUCOVISCIDOSE : AUTRES MUTATIONS QUE DELTA F 508,4045,er_bio_f_nabm,1
DPN : ALPHA-THALASSEMIE AVEC ANTECEDENTS FAMILIAUX CONNUS,4058,er_bio_f_nabm,1
PROLACTINE,343,er_bio_f_nabm,1
"IMMUNCOMPLEXES CIRCULANTS (ICC, CIC) (SANG)",1183,er_bio_f_nabm,1
PROTEINES SERIQUES OU PLASMATIQUES TOTALES (PROTIDES),2258,er_bio_f_nabm,2
"RICKETTSIOSES (RICKETTSIA CONORII,  RICKETTSIA TYPHI) : SERODIAGNOSTIC DE  DEPISTAGE (IFI)",1317,er_bio_f_nabm,1
HEPATITE DELTA (VHD) : SD : AG DELTA PAR EIA,1742,er_bio_f_nabm,1
SURRENALES : AUTOAC ANTISURRENALE PAR IFI,1489,er_bio_f_nabm,1
DETECTION QUALITATIVE DE L'ARN VIRAL,4123,er_bio_f_nabm,1
SANG : OSMOLARITE MESUREE,1607,er_bio_f_nabm,1
VIRUS DE L'HERPES SIMPLEX (VHS) : RECHERCHE DIRECTE PAR EIA,4229,er_bio_f_nabm,1
ANTIGENE CA 15-3 : DOSAGE,7321,er_bio_f_nabm,1
MAI : AUTOAC ANTIMEMBRANE BASALE D'EPITH. MALPIGHIEN,1493,er_bio_f_nabm,1
DPN PROPREMENT DIT : ETUDE METABOLIQUE GLOBALE SUR CELLULES,4026,er_bio_f_nabm,1
VITAMINE E : DOSAGE,7302,er_bio_f_nabm,1
"ANTIBIOGRAMME CHAMPIGNON (FONGIGRAMME) (ATB , FG)",271,er_bio_f_nabm,1
HERPES SIMPLEX (VHS) : SD : AC IGG ANTI  VHS 1 ET 2 PAR EIA + ITERATIF,3744,er_bio_f_nabm,1
VARICELLE : SD : CONTROLE D'IMMUNITE PAR IFI,1780,er_bio_f_nabm,1
ACIDE SALICYLIQUE : DOSAGE,1660,er_bio_f_nabm,1
CANDIDOSE : RECHERCHE ANTIGENES SOLUBLES,4317,er_bio_f_nabm,1
ANISAKIASE : SD DE CONFIRMATION PAR IELP,4305,er_bio_f_nabm,1
UR. : POTASSIUM URINAIRE,2006,er_bio_f_nabm,1
INFECTION A EBV ANCIENNE : SD : AC VCA IGG ET AC EBNA PAR IFI,1715,er_bio_f_nabm,1
CYTOMEGALOVIRUS (CMV) : CULTURES ORIENTEES ET IDENTIFICATION,4227,er_bio_f_nabm,1
ALPHA-FOETOPROTEINE (AFP) : DOSAGE COTATION NON CUMULABLE AVEC  CELLE DES ACTES 4004 ET 4005.,320,er_bio_f_nabm,1
DPN : RECHERCHE DE L'ADN DU PARVOVIRUS,4070,er_bio_f_nabm,1
PROTEINE C REACTIVE (CRP),1804,er_bio_f_nabm,3
SEROTONINE PAR CHROMATOGRAPHIE LIQUIDE  A HAUTE PERFORMANCE (CLHP),364,er_bio_f_nabm,1
SPIROCHETES : SEROTYPE D'UN LEPTOSPIRE ISOLE PAR CULTURE,249,er_bio_f_nabm,1
TETANOS : SERODIAGNOSTIC PAR EIA,1332,er_bio_f_nabm,1
VIRUS DE L'HERPES SIMPLEX (VHS) : RECHERCHE DIRECTE PAR IF,4228,er_bio_f_nabm,1
VIRUS DE VARICELLE ET ZONA : RECHERCHE DIRECTE PAR EIA,4233,er_bio_f_nabm,1
"RICKETTSIOSES (RICKETTSIA CONORII,  RICKETTSIA TYPHI) : SERODIAGNOSTIC :  TITRAGE SUR AU MOINS 2 AN",3318,er_bio_f_nabm,1
MAI NSO :  AC ANTIANTIGENES NUCLEAIRES SOLUBLES : DEPISTAGE,1456,er_bio_f_nabm,1
ELECTROPHORESE DE L'HEMOGLOBINE (CITRATE AGAR),1114,er_bio_f_nabm,1
VIRUS OURLIEN (OREILLONS) : RECHERCHE DIRECTE PAR IF,4250,er_bio_f_nabm,1
HEPARINEMIE PAR MESURE ACTIVITE ANTITHROMBINE (ANTI II ACTIVE),185,er_bio_f_nabm,1
POLYOMAVIRUS : CULTURES ORIENTEES ET IDENTIFICATION,4255,er_bio_f_nabm,1
DETECTION DE L'ARN DU VIRUS DU CHIKUNGUNYA PAR RT PCR PRELEVEMENT JUSQU'A J7 APRES LE DEBUT DES S,5259,er_bio_f_nabm,1
IGE SPECIFIQUES IMPLIQUANT DES ALLERGENES AUTRES QUE LES PNEUMALLERGENES ET TROPHALLERGENES - MEDI,968,er_bio_f_nabm,1
TOXOPLASMOSE CAS GENERAL : SUIVI : SD DE CONTROLE (2 SERUMS EN PARALLELE),1423,er_bio_f_nabm,1
THYROIDE : AUTOANTICORPS ANTIRECEPTEURS DE TSH. LA RECHERCHE  D'AUTOANTICORPS ANTIRECEPTEURS DE LA T,1488,er_bio_f_nabm,1
BORRELIOSE (LYME) : SERODIAGNOSTIC DE CONTROLE (WB OU RIPA OU IMMUNO-TRANSFERT),1302,er_bio_f_nabm,1
TEST DIRECT DE COOMBS (ANTIGLOBULINE POLYVALENTE),1153,er_bio_f_nabm,1
HEPATITE B (VHB) : SD : AC ANTIHBC IGM PAR EIA,352,er_bio_f_nabm,1
PRODUIT D'ORIGINE PELVIENNE OBTENU PAR COELIOSCOPIE.  OUTRE LES RECHERCHES INCLUSES DANS LA COTAT,5204,er_bio_f_nabm,1
MAL. POUMON FERMIER : SD DE DEPISTAGE,4349,er_bio_f_nabm,1
GROUPAGE SANGUIN ABO-RH (D) (GS),1140,er_bio_f_nabm,2
UR. : PIGMENTS ET SELS BILIAIRES :  RECHERCHE,631,er_bio_f_nabm,1
MYCOBACTERIE : SENSIBILITE VIS A VIS D'UN ANTIBIO PAR ANTIBIO,274,er_bio_f_nabm,1
STREPTOCOCCIES : UNE ANTI-ENZYME  STREPTOCOCCIQUE,1323,er_bio_f_nabm,1
ANTIDEPRESSEURS TRICYCLIQUES : RECHERCHE (SANG),1663,er_bio_f_nabm,1
POLYNUCLEAIRES EOSINOPHILES DANS UNE SECRETION : RECH ISOLEE,218,er_bio_f_nabm,1
ADENOVIRUS : RECHERCHE DIRECTE SUR SELLES PAR AGG,4205,er_bio_f_nabm,1
PSYCHOTROPES NON INSCRITS A LA NABM DANS UN AUTRE LIQ BIO QUE SANG,662,er_bio_f_nabm,1
OSMOLARITE FECALE MESUREE ET CALCUL DU TROU OSMOLAIRE. CET ACTE DOIT IMPERATIVEMENT ETRE PRATIQUE,1627,er_bio_f_nabm,1
DPN : ALLOANTICORPS RESPONSABLE ANEMIE OU THROMBOPENIE,4077,er_bio_f_nabm,1
MALASSEZIA FURFUR (PITYRIASIS VERSICOLOR),254,er_bio_f_nabm,1
MAL. POUMON FERMIER : SUIVI DU SD DE DEPISTAGE + ITERATIF,6349,er_bio_f_nabm,1
M. COELIAQUE : AUTOAC ANTIRETICULINE : TITRAGE PAR IFI,1474,er_bio_f_nabm,1
DOSAGE IMMUNOLOGIQUE DE LA PROTEINE S TOTALE EN VUE DU DIAGNOSTIC D'UN DEFICIT CE DOSAGE SERA EFFEC,1026,er_bio_f_nabm,1
LCR : DOSAGE DE DEUX PROTEINES OU PLUS,1615,er_bio_f_nabm,1
IGFBP 3,783,er_bio_f_nabm,1
ANTIDEPRESSEURS : RECHERCHE ET DOSAGE DANS UN AUTRE LIQUIDE BIOLOGIQUE QUE LE SG,668,er_bio_f_nabm,1
POXVIRUS : RECHERCHE PAR MIE,4257,er_bio_f_nabm,1
GENOTYPAGE DU VHC PAR BIOLOGIE  MOLECULAIRE,4125,er_bio_f_nabm,1
TRYPANOSOMIASE : MAL. SOMMEIL : SD DE DEPISTAGE,4360,er_bio_f_nabm,1
UR. : ACETONE  (ACETONURIE),620,er_bio_f_nabm,1
RENINE,776,er_bio_f_nabm,1
"PEPTIDES NATRIURETIQUES (ANP, BNP, NT-PROBNP) :  DOSAGE",1821,er_bio_f_nabm,2
"MYCOBACTERIES : ISOLEMENT RAPIDE A PARTIR CRACHATS,TUBAGES,UR,LIQ..",1241,er_bio_f_nabm,1
"DOSAGE FONCTIONNEL DE LA PROTEINE C EN VUE DU DIAGNOSTIC D'UN DEFICIT, LE DOSAGE SERA EFFECTUE DE P",191,er_bio_f_nabm,1
DPN PROPREMENT DIT - ACETYLCHOLINESTERASE AVEC ELECTROPHORESE,4021,er_bio_f_nabm,1
SOUS UNITE BETA HCG LIBRE : DOSAGE. LA PRISE EN CHARGE EST LIMITEE AU PRIMO-DIAGNOSTIC OU AU SUIVI,7317,er_bio_f_nabm,1
"UR. : PORPHYRINES : RECHERCHE, DOSAGE, IDENTIFICATION",638,er_bio_f_nabm,1
TOXOPLASMOSE CAS GENERAL : DEPISTAGE : SD INITIAL (2 ISOTYPES DIFFERENTS),1420,er_bio_f_nabm,1
HCG OU BETA HCG (RECHERCHE OU DOSAGE) DANS LES URINES,7401,er_bio_f_nabm,1
HERPES 6 (VHH6) : SD : AC IGG PAR IFI,1753,er_bio_f_nabm,1
SUIVI HEMOPATHIE MALIGNE CONNUE (MOELLE OU SANG),1106,er_bio_f_nabm,1
AMIBIASE : SD DE CONFIRMATION PAR COES,4302,er_bio_f_nabm,1
UR. : SODIUM URINAIRE,2005,er_bio_f_nabm,1
VIRUS RESPIRATOIRE SYNCYTIAL (VRS) : RECHERCHE DIRECTE PAR EIA,4247,er_bio_f_nabm,1
PREALBUMINE,1817,er_bio_f_nabm,1
"COMBINAISON DE QUATRE MARQUEURS SANGUINS : ALPHA2-MACROGLOBULINE, ACIDE HYALURONIQUE, BILIRUBINE T",1002,er_bio_f_nabm,1
"MAI NSO : F. RHUMATOIDES GROUPE 2 : IG HUMAINES (LATEX, ...)",1452,er_bio_f_nabm,1
RECHERCHE D'UNE ESPECE MICROBIENNE PAR  IMMUNOFLUORESCENCE SUR PRESCRIPTION  EXPLICITE (PNEUMOCYSTI,5291,er_bio_f_nabm,1
PARAINFLUENZA (PARAMYXOVIRUS) : SD PAR RFC,1761,er_bio_f_nabm,1
ACTES DE CYTOGENETIQUE MOLECULAIRE CONSTITUTIONNELLE : HYBRIDATION SUR CHROMOSOMES METAPHASIQUES (P,904,er_bio_f_nabm,1
SCHISTOSOMIASE : SUIVI  DU SD DE DEPISTAGE + ITERATIF,6355,er_bio_f_nabm,1
SANG : CAPACITE TOTALE DE SATURATION EN FER DE LA TRANSFERRINE  (CTST),2000,er_bio_f_nabm,2
RECHERCHE OU TITRAGE D'ANTICORPS ANTIPEPTIDES CYCLIQUES CITRULLINES. CET ACTE EST INDIQUE DANS LE D,1827,er_bio_f_nabm,1
SANG : SATURATION EN OXYGENE (SAO2),1612,er_bio_f_nabm,1
VIRUS COXSACKIE A : CULTURES CELLULAIRES,4236,er_bio_f_nabm,1
BICARBONATES OU CO2 TOTAL.,571,er_bio_f_nabm,2
"SANG : PHOSPHORE MINERAL (PHOSPHOREMIE , P)",563,er_bio_f_nabm,2
GRIPPE B : SD PAR EIA + ITERATIF,3733,er_bio_f_nabm,1
ANTICORPS ANTIGRANULOCYTAIRES : IDENTIFICATION,165,er_bio_f_nabm,1
UR. : CITRATURIE,2011,er_bio_f_nabm,1
FILARIOSE : SD DE CONFIRMATION PAR IE,4335,er_bio_f_nabm,1
DOSAGE FONCTIONNEL DE L'ANTITHROMBINE (INHIBITEUR PHYSIOLOGIQUE DE LA COAGULATION) EN VUE DU DIAGNO,189,er_bio_f_nabm,1
EPREUVE DE LA SUEUR PAR METHODE PHYSICO-CHIMIQUE,1635,er_bio_f_nabm,1
CICLOSPORINE APRES CHROMATOGRAPHIE (SANDIMMUN) (SANG),1376,er_bio_f_nabm,1
TEMPS DE QUICK EN CAS DE TRAITEMENT ANTIVITAMINE K (INR) RENDRE LE RESULTAT EN INR. LES COTATIONS,127,er_bio_f_nabm,3
17-HYDROXY-CORTICOSTEROIDES OU  TETRAHYDRO-11 DESOXYCORTISOL (T.H.S.)  URINAIRES,461,er_bio_f_nabm,1
THYROIDE : AUTOAC ANTITHYROPEROXYDASE PAR METH MARQUEUR,1487,er_bio_f_nabm,1
DOSAGE FONCTIONNEL DU FIBRINOGENE (FACTEUR I),174,er_bio_f_nabm,2
TRICHINOSE : SUIVI DU SD DE DEPISTAGE + ITERATIF,6358,er_bio_f_nabm,1
BARBITURIQUES : RECHERCHE ET DOSAGE (SANG),1674,er_bio_f_nabm,1
HEPATITE A (VHA) : SD : IGG OU IG TOTALES (IMMUNITE ANCIENNE  OU VACCINATION),1736,er_bio_f_nabm,1
PAPILLOMAVIRUS HUMAINS (HPV) ONCOGENES : DETECTION DU GENOME  VIRAL (ADN). PAR HYBRIDATION MOLECULAI,4127,er_bio_f_nabm,1
POLIOMYELITE : SD : CONTROLE D'IMMUNITE (3 SEROTYPES),1720,er_bio_f_nabm,1
EXPLORATION BIOCHIMIQUE DE LA FONCTION PROSTATO-VESICULAIRE,72,er_bio_f_nabm,1
"ECHINOCOCCOSES  (KYSTE HYDATIQUE, ...) : SD DE CONFIRMATION PAR IE",4331,er_bio_f_nabm,1
ANAPATH. : IMMUNOHISTOCHIMIE SUR COUPES A CONGELATION,18,er_bio_f_nabm,1
TOXOPLASMOSE CAS GENERAL : CULTURE CELLULAIRE,1424,er_bio_f_nabm,1
LARVA MIGRANS : TOXOCAROSE : SUIVI DU SD DE DEPIST. PAR 1 TECHN. + ITERATIF,6340,er_bio_f_nabm,1
LACTATE DESHYDROGENASE (LDH) DANS LE  SANG.  CET ACTE N'EST PAS INDIQUE DANS LA  MALADIE CORONARI,521,er_bio_f_nabm,2
ETUDE ISOLEE DES PLAQUETTES (THROMBOCYTES). NUMERATION DES PLAQUETTES : EN CAS D'ANOMALIE L'EXAMEN,1107,er_bio_f_nabm,2
METHOTREXATE ET SON METABOLITE (SANG),1656,er_bio_f_nabm,1
"ASPARTATE AMINOTRANSFERASE (ASAT,TGO) LA COTATION DE L'ACTE    0517 N'EST PAS CUMULABLE AVEC CELLES",517,er_bio_f_nabm,1
SUPPLEMENT POUR ACTES DE BIOLOGIE EFFECTUES SUR LES PATIENTS HOSPITALISES EN ETABLISSEMENTS DE SOI,9107,er_bio_f_nabm,2
TRYPANOSOMIASE : MAL. CHAGAS : SD DE DEPISTAGE,4361,er_bio_f_nabm,1
"TEST A L'HYDROGENE EXPIRE : PRELEVEMENTS. RECUEIL D'AU MOINS 6 ECHANTILLONS D'AIR EXPIRE, AVANT ET",1507,er_bio_f_nabm,1
"ALANINE AMINOTRANSFERASE (ALAT,TGP) LA COTATION DE L'ACTE 0516      N'EST PAS CUMULABLE AVEC CELLE D",516,er_bio_f_nabm,1
FILARIOSE : SD DE CONFIRMATION PAR COES,4333,er_bio_f_nabm,1
VIRUS RESPIRATOIRE SYNCYTIAL (VRS) : CULTURES ORIENTEES ET IDENTIFICATION,4248,er_bio_f_nabm,1
TRYPANOSOMIASE : MAL. CHAGAS : SUIVI DU SD DE DEPISTAGE + ITERATIF,6361,er_bio_f_nabm,1
DPN PROPREMENT DIT : MUCOVISCIDOSE : DELTA F 508,4044,er_bio_f_nabm,1
AMIBIASE : SUIVI DU SD DE DEPISTAGE PAR 1 TECHN. + ITERATIF,6301,er_bio_f_nabm,1
INFECTION A EBV RECENTE OU EVOLUTIVE : SD : AC VCA IGM OU AC EA PAR EIA,1718,er_bio_f_nabm,1
"QUINIDINE OU HYDROQUINIDINE (SERECOR, NATISEDINE, CARDIOQUINE, LONGACOR)",1677,er_bio_f_nabm,1
HEPATITE B (VHB) : SD : AG HBS PAR EIA,322,er_bio_f_nabm,2
ANTICORPS ANTIPLAQUETTAIRES : DEPISTAGE,162,er_bio_f_nabm,1
MAI : AUTOAC SPECIF. D'AUTRES ORGANES PAR IFI,1498,er_bio_f_nabm,1
MYCOBACTERIES : IDENTIF. BIOCH AUTRE QUE MYCOBACTERIUM TUBERCULOSIS,244,er_bio_f_nabm,1
SEROTYPAGE DU VHC PAR METHODE  IMMUNOLOGIQUE,4126,er_bio_f_nabm,1
"UREE ET CREATININE POUR LES ACTES 0592 ET 0593, IL EST  RECOMMANDE POUR LE DOSAGE DE LA CREATININE D",593,er_bio_f_nabm,3
LEGIONELLA PNEUMOPHILA:RECHERCHE D'ANTIGENE SOLUBLE URINAIRE PAR TECHNIQUE IMMUNO-ENZYMATIQUE,5235,er_bio_f_nabm,1
HEPATOPATHIES : AC ANTIACTINE : TITRAGE PAR T. MARQUEUR,1468,er_bio_f_nabm,1
5'NUCLEOTIDASE (SANG),1525,er_bio_f_nabm,1
"PLOMB (PB , PLOMBEMIE) (SANG)",565,er_bio_f_nabm,1
CYSTICERCOSE : SD DE DEPISTAGE PAR 2 TECHN.,4321,er_bio_f_nabm,1
ZINC PLASMATIQUE OU SERIQUE. UNE SEULE COTATION PAR PATIENT. CE DOSAGE PEUT ETRE REALISE PAR SPECT,2003,er_bio_f_nabm,1
C-PEPTIDE DANS LES URINES,756,er_bio_f_nabm,1
BARBITURIQUES (SAUF PHENOBARBITAL) : DOSAGE (SANG),1673,er_bio_f_nabm,1
"UR. : GLYCOSURIE, RECHERCHE ET DOSAGE",2007,er_bio_f_nabm,2
SANG : ACIDE URIQUE (URICEMIE),532,er_bio_f_nabm,3
UR. : PROTEINURIE DE BENCE JONES:RECHERCHE ET IDENTIFICATION,1619,er_bio_f_nabm,1
CORRECTION DU TEMPS DE THROMBINE,183,er_bio_f_nabm,1
DISTOMATOSE : SD DE CONFIRMATION PAR IELP,4326,er_bio_f_nabm,1
ADENOVIRUS : CULTURES ORIENTEES ET IDENTIFICATION,4208,er_bio_f_nabm,1
DPN PROPREMENT DIT : AUTRES INFECTIONS GENETIQUES,4083,er_bio_f_nabm,1
"COMBINAISON DE NEUF MARQUEURS SANGUINS : ALPHA2-MACROGLOBULINE, ACIDE HYALURONIQUE, NUMERATION PLAQ",1001,er_bio_f_nabm,1
"RECHERCHE DE LA MUTATION G20210A DU GENE DE LA PROTHROMBINE LES TESTS GENETIQUES (ACTES 1029, 1030",1030,er_bio_f_nabm,1
T3 LIBRE + T4 LIBRE (SANG),1209,er_bio_f_nabm,1
INFECTION A VIH 1 ET 2 :   ANALYSE DE CONFIRMATION DU  SERODIAGNOSTIC DE DEPISTAGE PAR  TECHNIQUE,389,er_bio_f_nabm,1
UR. : ELECTROPHORESE DES PROTEINES(PROTEINOGRAMME),635,er_bio_f_nabm,1
"PHENITOINE (DIPHENYL-HYDANTOINE, DIHYDAN, ...)",332,er_bio_f_nabm,1
ADENOVIRUS : RECHERCHE DIRECTE SUR SELLES PAR EIA,4206,er_bio_f_nabm,1
RECHERCHE DE BORDETELLA PECTUSSIS ET BORDETELLA PARAPERTUSSIS PAR AMPLIFICATION GENIQUE. SUR ASPIR,5258,er_bio_f_nabm,1
AMIBIASE : SD DE DEPISTAGE PAR 2 TECHN.,4301,er_bio_f_nabm,1
ARBOVIROSES : RECHERCHE IGM PAR EIA + ITERATIF,3707,er_bio_f_nabm,1
TITRAGE D'UN INHIBITEUR ANTI-FACTEUR VIII OU ANTI-FACTEUR IX IL EST RECOMMANDE D'EFFECTUER LE TITR,1019,er_bio_f_nabm,1
"EX MICROBIO PEAU, PHANERES",5214,er_bio_f_nabm,1
RUBEOLE : SD : IGM PAR IMMUNOCAPTURE,3783,er_bio_f_nabm,1
CARYOTYPE SUR PRELEVEMENT DE TUMEUR SOLIDE,907,er_bio_f_nabm,1
DPN : TOXOPLASME : CULTURE CELLULAIRE + INOCULATION A SOURIS,4062,er_bio_f_nabm,1
"VIRUS PARAINFLUENZAE (I, II, III, IV) : CULTURES ORIENTEES ET IDENTIFICATION",4245,er_bio_f_nabm,1
ADENOVIRUS : MISE EN EVIDENCE SUR SELLES PAR ME,4209,er_bio_f_nabm,1
UR. : MAGNESURIE,2012,er_bio_f_nabm,1
LARVA MIGRANS : TOXOCAROSE : SD DE DEPISTAGE PAR 2 TECHN.,4340,er_bio_f_nabm,1
INFECTION A VIH 1 ET 2 : 0388 SERODIAGNOSTIC DE  DEPISTAGE  SELON LES DISPOSITIONS DE L'ARRETE DU 28,388,er_bio_f_nabm,2
"SANG : FER SERIQUE (SIDEREMIE , FE)",548,er_bio_f_nabm,2
COMPLEMENT A LA COTATION MINIMALE DE  VALEUR B 15 (SANG). LA COTATION MINIMALE D'UN OU DE  PLUSIEU,9915,er_bio_f_nabm,1
SPIROCHETES ISOLEMENT BORRELIA PAR CULTURE,5284,er_bio_f_nabm,1
MAI NSO :  AC ANTIANTIGENES NUCLEAIRES SOLUBLES : TITRAGE,1457,er_bio_f_nabm,1
STREPTOCOCCIES : ANTI-ENZYMES STREPTOCOCCIQUES (2 OU PLUSIEURS),1324,er_bio_f_nabm,1
FIEVRE Q CHRONIQUE (COXIELLA BURNETTI) : SERODIAGNOSTIC (IGG ET IGA) AVEC UN ANTIGENE DE PHASE I ET,1249,er_bio_f_nabm,1
CYSTICERCOSE : SD DE CONFIRMATION PAR IE,4323,er_bio_f_nabm,1
CYTOMEGALOVIRUS  (CMV) : RECHERCHE DIRECTE PAR IF,4225,er_bio_f_nabm,1
PARAINFLUENZA (PARAMYXOVIRUS) : SD PAR IHA + ITERATIF,3760,er_bio_f_nabm,1
MYCOBACTERIES : EXAMEN MICROSCOPIQUE,240,er_bio_f_nabm,1
AMIBES : CULTURE SUR SELLES EMISES AU LABORATOIRE,289,er_bio_f_nabm,1
EXPLORATION DE LA FONCTION EPIDIDYMAIRE,73,er_bio_f_nabm,1
ASTROVIRUS : RECHERCHE DIRECTE PAR MIE,4217,er_bio_f_nabm,1
PARASITES DU SANG AUTRES QUE HEMATOZOAIRES : RECHERCHE,1126,er_bio_f_nabm,1
"GAMMA GLUTAMYL TRANSFERASE (GAMMAT GT , GGT) (SANG)",519,er_bio_f_nabm,3
DPN : ET. FAMILIALE : AUTRES AFFECTIONS GENETIQUES,4082,er_bio_f_nabm,1
DIABETE INSULINODEPENDANT : ANTICORPS  ANTI GAD,7890,er_bio_f_nabm,1
EX MICROBIO MATIERES FECALES ET/OU PRELEVEMENT RECTAL,5207,er_bio_f_nabm,1
RECHERCHE - QUANTIFICATION D'HEMATIES  FOETALES PAR LE TEST DE KLEIHAUER OU  PAR UNE TECHNIQUE IMMU,2109,er_bio_f_nabm,1
DISTOMATOSE : SD DE CONFIRMATION PAR IE,4327,er_bio_f_nabm,1
ANTIDEPRESSEURS : DOSAGE SPECIFIQUE DANS UN AUTRE LIQUIDE BIOLOGIQUE QUE LE SANG,665,er_bio_f_nabm,1
"IONOGRAMME COMPLET. IL COMPORTE LA DETERMINATION   MINIMALE DU  POTASSIUM, DU SODIUM, DU CHLORE, DES",1610,er_bio_f_nabm,2
ANTIGENE CA 19-9 : DOSAGE,7323,er_bio_f_nabm,1
ANTIGENE PROSTATIQUE SPECIFIQUE (PSA) : DOSAGE,7318,er_bio_f_nabm,2
TRACTUS DIGESTIF : AUTOAC ANTIFACTEUR INTRINSEQUE PAR METH MARQUEUR,1491,er_bio_f_nabm,1
MAJORATION PROVISOIRE CONVENTIONNELLE  QUI S'AJOUTE A LA COTATION DE L'ACTE  0008 UNIQUEMENT POUR L,21,er_bio_f_nabm,1
CMI STREPTOCOCCUS PNEUMONIAE,5290,er_bio_f_nabm,1
HYPODERMOSE : SD DE DEPISTAGE PAR 2 TECHN.,4338,er_bio_f_nabm,1
C4,1812,er_bio_f_nabm,1
CANDIDOSE : SD DE DEPISTAGE PAR 1 TECHN.,4312,er_bio_f_nabm,1
UR. : HYDROXYPROLINE TOTALE ET LIBRE(HYDROXYPROLINURIE),992,er_bio_f_nabm,1
TEST UNITAIRE VIS-A-VIS D'ALLERGENES  MULTIPLES SEPARES DANS UN MEME REACTIF  OU SUR UN MEME SUPPOR,1203,er_bio_f_nabm,1
SALMONELLOSES : SD (TAB OU WIDAL ET FELIX),1319,er_bio_f_nabm,1
INFECTION A ARENAVIRUS : SD PAR SERONEUTRALISATION,1712,er_bio_f_nabm,1
"SECRETIONS, EXSUDATS ET ULCERATIONS DE LOCALISATION GENITALE ET ANO-GENITALE  CHEZ LA FEMME.  OUT",5202,er_bio_f_nabm,2
HELICOBACTER PYLORI : TEST RESPIRATOIRE A L'UREE MARQUEE AU CARBONE 13. ANALYSE DES DEUX ECHANTILL,5234,er_bio_f_nabm,1
HERPES SIMPLEX (VHS) : SD : AC IGM ANTI  VHS 1 ET 2 PAR EIA + ITERATIF,3746,er_bio_f_nabm,1
INFECTIONS A HELICOBACTER PYLORI : SERODIAGNOSTIC + ITERATIF,3311,er_bio_f_nabm,1
DEBIT URIN. HEMATIES ET LEUCOCYTES PAR MILLILITRE (CULOT URIN QUANT),221,er_bio_f_nabm,1
CMI BACTERIE ANAEROBIE,5279,er_bio_f_nabm,1
MAI NSO : AUTOAC ANTIMITOCHONDRIES DE TYPE 5 PAR IFI : TITRAGE,1461,er_bio_f_nabm,1
VIH : CULTURES SUR LYMPHOCYTES,4258,er_bio_f_nabm,1
BORRELIOSE (LYME) : SERODIAGNOSTIC DE  DEPISTAGE DES ANTICORPS TOTAUX OU IGG  ET/OU IGM (IFI OU EIA,1301,er_bio_f_nabm,1
RECH. ANOMALIE DE L'HEMOGLOBINE (3 TECHNIQUES MIN.),1120,er_bio_f_nabm,1
"DETERMINATION DE L'ACTIVITE CHYMOTRYPSIQUE FECALE. DANS LE CAS D'UN TRAITEMENT PAR ENZYMOTHERAPIE,",1628,er_bio_f_nabm,1
MAI NSO : AC ANTI-ADN NATIF PAR IFI SUR AUTRE LIQ BIOL QUE SANG,1554,er_bio_f_nabm,1
RBP (RETINOL BINDING PROTEIN) : DOSAGE,1818,er_bio_f_nabm,1
"AG ERYTHROC. (CW, KIDD, DUFFY, S, S ...) CHAQUE AG",1146,er_bio_f_nabm,1
TRYPTASE (DANS LES 24 HEURES SUIVANT UN CHOC ANAPHYLLACTIQUE),969,er_bio_f_nabm,1
SANG : METHEMOGLOBINE (METHB),559,er_bio_f_nabm,1
CANDIDOSE : SD DE CONFIRMATION PAR IE,4316,er_bio_f_nabm,1
CYTOMEGALOVIRUS  (CMV) : ANTIGENEMIE LEUCOCYTAIRE PAR IF,4226,er_bio_f_nabm,1
GLUCOSE-6-PHOSPHATE DESHYDROGENASE (G6PD) (SANG),1518,er_bio_f_nabm,1
DPN PROPREMENT DIT : CULTURES CELLULAIRES,4031,er_bio_f_nabm,1
DPN PROPREMENT DIT : ETUDE ENZ SUR CELLULES (SUBSTRAT NON ISOTOPIQUE),4027,er_bio_f_nabm,1
"SANG : DOSAGE DU CHOLESTEROL-LDL (C-LDL). PAR UNE METHODE  ENZYMATIQUE, DIRECTE, STANDARDISEE ET AUT",2001,er_bio_f_nabm,1
INFECTION A ARENAVIRUS : SD PAR EIA,1711,er_bio_f_nabm,1
ANTITUMORAUX (AUTRES QUE METHOTREXATE) DANS UN AUTRE LIQ BIO QUE SANG,657,er_bio_f_nabm,1
DPN : BETA THALASSEMIE MAJEURE (+ DE 2 MUTATIONS),4056,er_bio_f_nabm,1
ANTIBIOGRAMME BACTERIE ANAEROBIE (SAUF MYCOPLASME) (ATB),270,er_bio_f_nabm,1
THYROIDE : AUTOAC ANTIMICROSOMES THYROIDIENS PAR IFI,1486,er_bio_f_nabm,1
LACTATE DESHYDROGENASE (LDH) (AUTRE LIQUIDE BIOL QUE SANG),1521,er_bio_f_nabm,1
DPN PROPREMENT DIT : MAL. HEREDITAIRES METABOLIQUES,4034,er_bio_f_nabm,1
VIRUS DE LA ROUGEOLE : RECHERCHE DIRECTE PAR IF,4262,er_bio_f_nabm,1
TOXOPLASMOSE GROSSESSE : SUIVI : SD DE CONTROLE (2 SERUMS EN PARALLELE),1433,er_bio_f_nabm,1
SANG : APOLIPOPROTEINE A1 L'ACTE EST INDIQUE DANS LES SITUATIONS SUIVANTES : - MALADIES GENETIQUES,1603,er_bio_f_nabm,1
TOXOPLASMOSE NOUVEAU-NE : SD DE SURVEILLANCE PAR PLUS. TECHN.,1437,er_bio_f_nabm,1
PROTEINOGRAMME 0570 ET TYPAGE 1571,1572,er_bio_f_nabm,1
GRIPPE B : SD PAR EIA,1733,er_bio_f_nabm,1
CALCULS : ANALYSE  MORPHO-CONSTITUTIONNELLE DES CALCULS  PAR ANALYSE SEQUENTIELLE OPTIQUE ET  PHYS,1632,er_bio_f_nabm,1
17-CETOSTEROIDES URINAIRES,455,er_bio_f_nabm,1
,1529,er_bio_f_nabm,1
"EX MICROBIO PLAIE, ECOULEMENT PURULENT, TISSU",5215,er_bio_f_nabm,1
TESTOSTERONE (FEMME ET ENFANT),1136,er_bio_f_nabm,1
AC IMMUNS DU SYSTEME ABO : DEPISTAGE ET TITRAGE,1151,er_bio_f_nabm,1
POLIOVIRUS : CULTURES CELLULAIRES,4235,er_bio_f_nabm,1
"ISONIAZIDE (INH , RIMIFON) (SANG)",1652,er_bio_f_nabm,1
ANTIBIOGRAMME BACTERIE AEROBIE (SAUF MYCOPLASME) (ATB),269,er_bio_f_nabm,1
DIGOXINE OU DIGITOXINE (DIGITALINE),327,er_bio_f_nabm,1
PROTEINES GLYQUEES (TYPE FRUCTOSAMINE OU AUTRE) : DOSAGE,1576,er_bio_f_nabm,1
HEPATOPATHIES : AC ANTIMITOCHONDRIES : TITRAGE PAR T. MARQUEUR,1470,er_bio_f_nabm,1
CALCITONINE,1132,er_bio_f_nabm,1
DOSAGE DES LIPIDES TOTAUX. LE LABORATOIRE QUI EXECUTE L'ACTE DEVRA SYSTEMATIQUEMENT ASSOCIER A CET,666,er_bio_f_nabm,1
DPN : CYTOMEGALOVIRUS (CMV) : CULTURE,4064,er_bio_f_nabm,1
INFECTIONS A CAMPYLOBACTER :  SERODIAGNOSTIC,1310,er_bio_f_nabm,1
HEPATITE C (VHC) : SD DE DEPISTAGE : AC ANTI-VHC PAR EIA,3784,er_bio_f_nabm,2
ADENOVIRUS : RECHERCHE DIRECTE SUR LIQUIDES AUTRES QUE SELLES PAR IF,4207,er_bio_f_nabm,1
COMPLEMENT A LA COTATION MINIMALE DE  VALEUR B 7 (SANG). LA COTATION MINIMALE D'UN OU DE  PLUSIEUR,9921,er_bio_f_nabm,1
VITESSE DE SEDIMENTATION (VS),1124,er_bio_f_nabm,3
CORTISOL (SANG),462,er_bio_f_nabm,1
SANG : CUIVRE (SERIQUE OU PLASMATIQUE),547,er_bio_f_nabm,1
BACTERIE ANAEROBIE NOMMEMENT DESIGNEE : RECH. ISOLEE,215,er_bio_f_nabm,1
INFECTIONS A CHLAMYDIA TRACHOMATIS : RECHERCHE D'ADN OU D'ARN DE CHLAMYDIA TRACHOMATIS PAR AMPLIFIC,5257,er_bio_f_nabm,1
PROTOPORPHYRINES ZINC (PPZ),1123,er_bio_f_nabm,1
AMIBIASE : SD DE CONFIRMATION PAR IELP,4303,er_bio_f_nabm,1
INFECTION A CMV : DIAGNOSTIC RAPIDE DE L'IMMUNITE : TEST AU LATEX,3779,er_bio_f_nabm,1
"DOSAGE IMMUNOLOGIQUE DU FACTEUR WILLEBRAND TECHNIQUE COMPLEMENTAIRE DU DOSAGE FONCTIONNEL, LE DOSA",1013,er_bio_f_nabm,1
HISTOPLASMOSE : SD DE CONFIRMATION PAR IELP,4337,er_bio_f_nabm,1
DPN PROPREMENT DIT : EXPLORATION THYROIDIENNE,4023,er_bio_f_nabm,1
ROUGEOLE : SD INFECTION RECENTE : IGG + IGM PAR EIA,1768,er_bio_f_nabm,1
PNEUMALLERGENES : IDENTIFICATION AVEC  DOSAGE QUANTITATIF DES IGE SPECIFIQUES  VIS-A-VIS D'ALLERGEN,1204,er_bio_f_nabm,2
TEMPS DE LYSE DES EUGLOBULINES,175,er_bio_f_nabm,1
TEST AU TRH. COTATION APPLICABLE QUEL QUE SOIT LE NOMBRE D'HORMONES DOSEES. LA COTATION DE L'ACTE,1803,er_bio_f_nabm,1
"DETECTION DE L'ARN DU VIRUS ZIKA PAR  RT-PCR SUR   PRELEVEMENT URINAIRE.PRELEVEMENT, JUSQU'A J10 APR",5264,er_bio_f_nabm,1
FOLATES SERIQUES OU ERYTHROCYTAIRES. UNE SEULE COTATION PAR PATIENT.,1387,er_bio_f_nabm,2
CORONAVIRUS : RECHERCHE DIRECTE PAR ME,4223,er_bio_f_nabm,1
VARICELLE-ZONA : SD INF RECENTE OU RECURRENCE : IGG + IGM PAR IFI + ITERARIF,3778,er_bio_f_nabm,1
M. COELIAQUE : AUTOAC ANTIGLIADINE : TITRAGE DES IGA,1476,er_bio_f_nabm,1
DPN : RUBEOLE : INTERFERON,4068,er_bio_f_nabm,1
"MAI NSO : AUTOAC ANTIPHOSPHOLIPIDES (ANTICARDIOLIPINE, ...) : TITRAGE",1460,er_bio_f_nabm,1
INFECTION A VIRUS COXSACKIE A ET B : SD,1721,er_bio_f_nabm,1
THYROIDE  : AUTOAC ANTITHYROGLOBULINE PAR HEMAGGLUTINATION,1483,er_bio_f_nabm,1
DOSAGE IMMUNOLOGIQUE DE LA PROTEINE S LIBRE ANTIGENE EN VUE DU DIAGNOSTIC D'UN DEFICIT CE DOSAGE,1025,er_bio_f_nabm,1
DOSAGE DE LA 25-(OH)-VITAMINE D (D2 +  D3)  LA PRISE  EN  CHARGE DE CET ACTE EST  LIMITEE AUX SITUAT,1139,er_bio_f_nabm,2
VARICELLE : SD : CONTROLE D'IMMUNITE PAR EIA,1779,er_bio_f_nabm,1
PARAINFLUENZA (PARAMYXOVIRUS) : SD PAR RFC + ITERATIF,3761,er_bio_f_nabm,1
SANG : CHOLESTEROL TOTAL (CHOL) LA COTATION DES ACTES 0580 ET 0590 NE SONT PAS CUMULABLES AVEC CELL,580,er_bio_f_nabm,2
GENOME (ARN) VIH - 1 : CHARGE VIRALE,4122,er_bio_f_nabm,1
HISTOPATH. PIECE OPER. COMPLEXE COMPORTANT PLUSIEURS ORGANES,8,er_bio_f_nabm,1
DPN : RECHERCHE DE L'ADN DU VIRUS DE LA VARICELLE,4066,er_bio_f_nabm,1
DOSAGE QUANTITATIF DES D-DIMERES LA PRESCRIPTION D'UN DOSAGE DE D-DIMERES EN VUE D'EXCLURE UN EPIS,1022,er_bio_f_nabm,1
EXAMEN IMMUNOCYTOCHIMIQUE DE L'ETALEMENT D'UN PRODUIT DE PONCTION D'UN ORGANE OU D'UN PRODUIT D'AS,23,er_bio_f_nabm,1
TEST D'AUTO-HEMOLYSE,1116,er_bio_f_nabm,1
ALPHA 1 GLYCOPROTEINE ACIDE OU OROSOMUCOIDE : DOSAGE,1808,er_bio_f_nabm,1
PSYCHOTROPES NON NOMMEMENT INSCRITS A LA NABM  (SANG),1662,er_bio_f_nabm,1
BARBITURIQUES (SAUF PHENOBARBITAL) : DOSAGE DANS UN AUTRE LIQ BIOL QUE LE SANG,673,er_bio_f_nabm,1
EXAMEN MICROSCOPIQUE DIRECT ET APRES COLORATION PERMETTANT D'IDENTIFIER LES DIFFERENTES CATEGORIES,1417,er_bio_f_nabm,1
ANTIDEPRESSEURS AUTRES QUE TRICYCLIQUES DANS UN AUTRE LIQ BIOL QUE LE SANG,664,er_bio_f_nabm,1
CHLAMYDIA : RECH DIRECTE ISOLEE ET EXCLUSIVE PAR METHODE IMMUNOLOGIQUE,5254,er_bio_f_nabm,1
PAS D'IN,4124,er_bio_f_nabm,1
COMPLEMENT A LA COTATION MINIMALE DE  VALEUR B 13 (SANG). LA COTATION MINIMALE D'UN OU DE  PLUSIEU,9926,er_bio_f_nabm,2
THYROGLOBULINE,821,er_bio_f_nabm,1
CRYPTOCOCCOSE : SUIVI DU TITRAGE ANTIGENES SOLUBLES + ITERATIF,6319,er_bio_f_nabm,1
"DOSAGE DES IGE TOTALES SERIQUES  EXCLUSIVEMENT, A L'EXCEPTION DES  TECHNIQUES UTILISANT DES SUPPORT",1200,er_bio_f_nabm,1
HEPATITE B (VHB):SD SURVEILLANCE GROSSESSE:AG HBS PAR EIA,4715,er_bio_f_nabm,1
"AMYLASEMIE. POUR LES EXAMENS 1510 ET 1511, COTATION  MAXIMUM  DE DEUX DOSAGES SIMULTANES DANS DEUX M",1510,er_bio_f_nabm,1
"UR. : POTASSIUM ET SODIUM (IONOGRAMME, K + NA)",1621,er_bio_f_nabm,1
MAI NSO : AUTOAC ANTICYTOPLASME DE PNN (ANCA) :T.MARQUEUR: SPECIFICITE,1463,er_bio_f_nabm,1
"DETERMINATION DE LA CLAIRANCE DE L'ALPHA 1 ANTITRYPSINE, PAR DETERMINATION DES CONCENTRATIONS SERI",1415,er_bio_f_nabm,1
EPREUVE D'ABSORPTION D'ANTICORPS SUR GR,1156,er_bio_f_nabm,1
PARAMETRES TISSULAIRES EN CANCEROLOGIE : TRAITEMENT PRE-ANALYTIQUE DU TISSU TUMORAL CRYOPRESERVE -,1826,er_bio_f_nabm,1
ANDROSTENEDIONE,1134,er_bio_f_nabm,1
"CORPS ASBESTOSIQUES (PARENCH. PULM., LBA, EXPECTORATION)",1690,er_bio_f_nabm,1
THROMBOPENIES : AUTOAC ANTIPLAQ.  : IDENT. CIBLE IMMUNOBLOT,1480,er_bio_f_nabm,1
INFECTION A CMV RECENTE  SD : IGG + IGM PAR IFI,1714,er_bio_f_nabm,1
"DECONGELATION D'EMBRYON(S) PAR CYCLE,  QUEL  QUE SOIT LE NOMBRE D'EMBRYONS. CET ACTE  COMPREND LA",63,er_bio_f_nabm,1
"HEMOGRAMME Y COMPRIS PLAQUETTES (NFS , NFP)",1104,er_bio_f_nabm,4
EX MICROBIO HEMOCULTURE QUALITATIVE,5219,er_bio_f_nabm,1
ROTAVIRUS : RECHERCHE DIRECTE PAR EIA,4267,er_bio_f_nabm,1
OREILLONS (V. OURLIEN) : IMMUNITE ANCIENNE : SD : IGG PAR IFI,1759,er_bio_f_nabm,1
ROUGEOLE : SD CONTROLE D'IMMUNITE : IGG OU IG TOTALES PAR IFI,1771,er_bio_f_nabm,1
PARASITES : RECH. ET/OU IDENTIF. PAR EX. MACRO. ET/OU MICRO.(DEMODEX),267,er_bio_f_nabm,1
DPN : C. INDEX - ET. FAMILIALE : MAL. HEREDITAIRES METABOLIQUES,4033,er_bio_f_nabm,1
RHINOVIRUS : CULTURES ORIENTEES ET IDENTIFICATION,4272,er_bio_f_nabm,1
CYFRA 21-1 : DOSAGE,822,er_bio_f_nabm,1
COMPLEMENT A LA COTATION MINIMALE DE  VALEUR B 4 (SANG). LA COTATION MINIMALE D'UN OU DE  PLUSIEUR,9919,er_bio_f_nabm,1
CHROMOGRANINE : DOSAGE,1824,er_bio_f_nabm,1
TEMPS DE THROMBINE (T.T.),128,er_bio_f_nabm,1
HEPATOPATHIES : AC ANTIMITOCHONDRIES : TITRAGE PAR IFI,1469,er_bio_f_nabm,1
CNO : IDENTIFICATION VIRALE PAR 3 A 7 SERUMS,4203,er_bio_f_nabm,1
LEPTOSPIROSE RECHERCHE DES IGM DE LEPTOSPIRA PAR EIA A REALISER UNIQUEMENT EN PHASE IMMUNE (DETEC,4718,er_bio_f_nabm,1
DPN PROPREMENT DIT : ETUDE ENZ SUR CELLULES (SUBSTRAT ISOTOPIQUE),4028,er_bio_f_nabm,1
SANG : UREE,591,er_bio_f_nabm,2
DOSAGE FONCTIONNEL DE LA PROTEINE S EN VUE DU DIAGNOSTIC D'UN DEFICIT CE DOSAGE SERA EFFECTUE DE PR,190,er_bio_f_nabm,1
TOXOPLASMOSE CAS GENERAL : DEPISTAGE : CONTROLE DU SD INITIAL SUR AUTRE PREL.,1421,er_bio_f_nabm,1
INFECTION A CMV  : IMMUNITE ANCIENNE  SD : IGG PAR EIA,1785,er_bio_f_nabm,1
M. COELIAQUE : AUTOAC ANTIGLIADINE : TITRAGE DES IGG,1477,er_bio_f_nabm,1
THROMBOPENIES : AUTOAC ANTIPLAQ.  : IDENT. CIBLE IMMUNOCAPTURE MAIPA,1479,er_bio_f_nabm,1
TEMPS DE SAIGNEMENT (TS) : EPREUVE DE DUKE,121,er_bio_f_nabm,1
PREPARATION DES SPERMATOZOIDES OBTENUS  PAR  PONCTION TESTICULAIRE OU EPIDIDYMAIRE OU  BIOPSIE TES,62,er_bio_f_nabm,1
VIRUS RESPIRATOIRE SYNCYTIAL (VRS) : RECHERCHE DIRECTE PAR IF,4246,er_bio_f_nabm,1
ANTIDEPRESSEURS : RECHERCHE ET DOSAGE (SANG),1666,er_bio_f_nabm,1
DPN : RUBEOLE : CULTURE,4067,er_bio_f_nabm,1
LEGIONELLOSES : SERODIAGNOSTIC DE  DEPISTAGE,1336,er_bio_f_nabm,1
PEPTIDE VASOACTIF INTESTINAL (VIP),774,er_bio_f_nabm,1
UR. : CRISTALLURIE,2009,er_bio_f_nabm,1
SULFATE DE DHA. LA PRISE EN CHARGE DE L'EXAMEN EST LIMITEE AUX MALADIES SURRENALIENNES.,1802,er_bio_f_nabm,1
ANTIDEPRESSEURS AUTRES QUE TRICYCLIQUES : RECHERCHE (SANG),1664,er_bio_f_nabm,1
EX. PARASITO. SELLES EMISES AU LABO (PROTOZOAIRES),259,er_bio_f_nabm,1
BACTERIE AEROBIE OU MICROAEROPHILE NOMMEMENT DESIGNEE : RECH. ISOLEE,214,er_bio_f_nabm,1
HEPATITE B (VHB) : SD : AC ANTIHBS (IGG OU IG TOTALES) PAR EIA,323,er_bio_f_nabm,2
THYROIDE : AUTOAC ANTIMICROSOMES THYROIDIENS PAR  HEMAGGLUTINATION,1485,er_bio_f_nabm,1
EX MYCO ISOLE CHAMPIGNON EXOTIQUE SUR COUPE D'ORGANE,256,er_bio_f_nabm,1
TOXOPLASMOSE GROSSESSE : CULTURE CELLULAIRE,1434,er_bio_f_nabm,1
LARVA MIGRANS : TOXOCAROSE : SD DE CONFIRMATION PAR IELP,4342,er_bio_f_nabm,1
EX. MYCO ISOLE : IDENTIF.D'ESPECE D'UN CHAMPIGNON AUTRE QUE C. ALBICANS,280,er_bio_f_nabm,1
TRISOMIE 21 F TALE : DEPISTAGE  SEQUENTIEL INTEGRE AU   DEUXIEME  TRIMESTRE. SI LES CONDITIONS DE  L,4005,er_bio_f_nabm,1
RAI : DOSAGE PONDERAL D'UN ANTICORPS,1150,er_bio_f_nabm,1
HCG OU BETA HCG (RECHERCHE OU DOSAGE) DANS LE SANG. CET EXAMEN NE PEUT ETRE PRIS EN CHARGE LORSQU',7402,er_bio_f_nabm,2
UR. : ACIDE URIQUE  (URICURIE),622,er_bio_f_nabm,1
"DIAZEPAM (VALIUM, ...) ET SON METABOLITE",1668,er_bio_f_nabm,1
ALVEOLITES ALLERGIQUES EXOGENES : SD DE CONFIRMATION PAR IELP,4352,er_bio_f_nabm,1
LEPTOSPIROSES : SERODIAGNOSTIC DE DEPISTAGE,1245,er_bio_f_nabm,1
SELLES : EXAMENS PHYSIQUE ET CHIMIQUE COMPLETS,1623,er_bio_f_nabm,1
UR. : UROBILINE : RECHERCHE,647,er_bio_f_nabm,1
ELECTROPHORESE DE L'HEMOGLOBINE (GEL POLYACRYLAMIDE),1113,er_bio_f_nabm,1
RECHERCHE OU TITRAGE D'AUTOANTICORPS ANTIENDOMYSIUM DE CLASSE IGA PAR IMMUNOFLUORESCENCE INDIRECTE.,1830,er_bio_f_nabm,1
EX MICROBIO P.OCULAIRE PAR OPHTALMO :LESIONS ULCEREUSES,5226,er_bio_f_nabm,1
LCR : ELECTROPHORESE DES PROTEINES,611,er_bio_f_nabm,1
MAL POUMON FERMIER : SD DE CONFIRMATION PAR IELP,4350,er_bio_f_nabm,1
INFECTIONS PULMONAIRES A CHLAMYDIA PSITTACI : SERODIAGNOSTIC + ITERATIF,3309,er_bio_f_nabm,1
"ECHINOCOCCOSES (KYSTE HYDATIQUE, ...) : SD DE DEPISTAGE PAR 2 TECHN.",4328,er_bio_f_nabm,1
RECHERCHE D'ANTICORPS ANTI-FACTEUR 4 PLAQUETTAIRE (PF4) DANS LE CADRE D'UNE SUSPICION DE THROMBOPEN,1024,er_bio_f_nabm,1
OEUFS DE BILHARZIES : RECHERCHE,266,er_bio_f_nabm,1
GRIPPE A : SD PAR EIA,1730,er_bio_f_nabm,1
LITHIUM (LI) DANS UN AUTRE LIQUIDE BIOLOGIQUE QUE LE SANG,567,er_bio_f_nabm,1
CNO : CULTURES CELLULAIRES DE VIRUS NON ORIENTEES,4201,er_bio_f_nabm,1
PROCALCITONINE : DOSAGE,7307,er_bio_f_nabm,1
"HEPATITE C (VHC) : CONTROLE SEROLOGIQUE PAR UNE TECHNIQUE EIA OU NON, UTILISANT UN REACTIF DIFFEREN",3785,er_bio_f_nabm,1
SOMATOMEDINE (IGF1-SMC),780,er_bio_f_nabm,1
CRYPTOCOCCOSE : ANTIGENES SOLUBLES : RECHERCHE,4318,er_bio_f_nabm,1
ACIDE HYDROXY-INDOLE-ACETIQUE  (METABOLITE DE LA SEROTONINE) URINAIRE,466,er_bio_f_nabm,1
LEPTOSPIROSES : SERODIAGNOSTIC :  TITRAGE PAR MICRO-AGGLUTINATION-LYSE AU  MOINS 9 ANTIGENES,1312,er_bio_f_nabm,1
TRACTUS DIGESTIF : AUTOAC ANTICELLULES PARIETALES DE L'ESTOMAC PAR IFI,1490,er_bio_f_nabm,1
GROUPAGES TISSULAIRES : PHENOTYPE HLA CLASSE II,1181,er_bio_f_nabm,1
SANG : GAZ DU SANG,999,er_bio_f_nabm,1
INF. A PARVOVIRUS B 19 RECENTE : SD : IGG + IGM PAR EIA,1763,er_bio_f_nabm,1
ACTES DE CYTOGENETIQUE MOLECULAIRE CONSTITUTIONNELLE : HYBRIDATION SUR NOYAUX INTERPHASIQUES QUEL Q,905,er_bio_f_nabm,1
DPN PROPREMENT DIT  : MUCOVISCIDOSE : POLYMORPHISME DE L'ADN,4046,er_bio_f_nabm,1
EX MICROBIO SECRETIONS BRONCHO-PULMONAIRES ET EXPECTORATIONS,5210,er_bio_f_nabm,1
TEST A L'HYDROGENE EXPIRE : MESURES. MESURE DE L'HYDROGENE EXPIRE DANS 6 ECHANTILLONS AU MOINS EN V,1508,er_bio_f_nabm,1
AMIBES : RECH. DANS MUCUS RECUEILLI SOUS RECTOSCOPIE,262,er_bio_f_nabm,1
ETUDE DES FONCTIONS PLAQUETTAIRES PAR METHODE D'AGREGATION (METHODE PHOTOMETRIQUE OU PAR IMPEDANCE,1011,er_bio_f_nabm,1
GRIPPE B : SD PAR RFC,1732,er_bio_f_nabm,1
HELICOBACTER PYLORI  TEST RESPIRATOIRE A L'UREE MARQUEE AU  C13.  RECUEIL DES DEUX ECHANTILLONS D',5233,er_bio_f_nabm,1
HEPATITE B (VHB):SD CONTROLE GUERISON:AG HBS+AC ANTI-HBS PAR  EIA,4712,er_bio_f_nabm,1
FIEVRE Q (COXIELLA BURNETTI) : SERODIAGNOSTIC : TITRAGE AVEC UN ANTIGENE DE PHASE II (IFI) + ITERA,3248,er_bio_f_nabm,1
PALUDISME : SD PAR ELS,4353,er_bio_f_nabm,1
VIRUS COXSACKIE B : CULTURES CELLULAIRES,4238,er_bio_f_nabm,1
SANG : TRIGLYCERIDES (TG) LA COTATION DES ACTES 0580 ET 0590  NE SONT PAS CUMULABLES AVEC CELLE DE L,590,er_bio_f_nabm,2
"GENOME : CHLAMYDIA : HYBRID MOLEC SANS AMPLI GENIQUE (ENDOCOL, URETRE, ...)",5256,er_bio_f_nabm,1
CRYOCONSERVATION DE SPERME ASSOCIEE A UN  TRAITEMENT STERILISANT A VISEE  THERAPEUTIQUE PAR PATIENT,66,er_bio_f_nabm,1
PYRUVATE KINASE (SANG),1527,er_bio_f_nabm,1
INF. A PARVOVIRUS B 19 ANCIENNE : SD : IGG OU IG TOTALES PAR EIA,1764,er_bio_f_nabm,1
HERPES SIMPLEX (VHS) : SD : AC IGM ANTI VHS 1 + 2 PAR IFI,1747,er_bio_f_nabm,1
MYELOGRAMME(MEDULLOGR) ADENOGRAMME OU SPLENOGRAMME,1101,er_bio_f_nabm,1
ENZYME DE CONVERSION DE L'ANGIOTENSINE,523,er_bio_f_nabm,1
CUIVRE URINAIRE,2008,er_bio_f_nabm,1
RUBEOLE : SD D'UNE IMMUNITE POST-VACCINALE PAR AGGLUTINATION,4717,er_bio_f_nabm,1
ARBOVIRUS : CULTURES ORIENTEES ET IDENTIFICATION,4211,er_bio_f_nabm,1
VIRUS DE LA RUBEOLE : CULTURES ORIENTEES ET IDENTIFICATION,4265,er_bio_f_nabm,1
EXPLORATION D'UNE ANOMALIE LIPIDIQUE (EAL). CET  EXAMEN  COMPREND L'ENSEMBLE INDISSOCIABLE DES ANALY,996,er_bio_f_nabm,3
"HORMONE DE CROISSANCE (HGH, SOMATOTROPINE) (SANG)",7423,er_bio_f_nabm,1
RUBEOLE : SD PAR IHA OU EIA + ITERATIF,3773,er_bio_f_nabm,1
OEUFS D'HELMINTHES  :MARGE DE  L'ANUS (SCOTCH TEST),263,er_bio_f_nabm,1
GLUCOSE,552,er_bio_f_nabm,3
ANAPATH. : IMMUNOHISTOCHIMIE SUR COUPES EN PARAFFINE OU RESINE,17,er_bio_f_nabm,1
FECALOGRAMME (OU COPROLOGIE  FONCTIONNELLE) : CETTE DETERMINATION  COMPREND AU MINIMUM LES EXAMENS,1630,er_bio_f_nabm,1
"SANG : MAGNESIUM PLASMATIQUE OU GLOBULAIRE (MAGNESEMIE , MG)",584,er_bio_f_nabm,2
LARVA MIGRANS : TOXOCAROSE : SD DE CONFIRMATION PAR IE,4343,er_bio_f_nabm,1
FILARIOSE : SUIVI DU SD DE DEPISTAGE PAR 1 TECHN. + ITERATIF,6332,er_bio_f_nabm,1
LYSOZYME OU MURAMIDASE (URINE),1519,er_bio_f_nabm,1
TEST DIRECT DE COOMBS (ANTIGLOBULINE SPECIFIQUE),1154,er_bio_f_nabm,1
"UN FACTEUR DE COAGULATION PAR METH IMMUNO. (I, II, VII, X, WILL.)",187,er_bio_f_nabm,1
OSTEOCALCINE,1138,er_bio_f_nabm,1
